(footprint "Heatsink_Aavid-TV5G_TO220_Horizontal" (version 20211014) (generator pcbnew)
  (layer "F.Cu")
  (tedit 5BE6CB46)
  (descr "Heatsink TV5G TO-220 Horizontal, https://www.shopaavid.com/Product/TV-5G")
  (tags "Heatsink TV5G TO-220 Horizontal ")
  (attr through_hole)
  (fp_text reference "REF**" (at 0 -7.5) (layer "F.SilkS")
    (effects (font (size 1 1) (thickness 0.15)))
    (tstamp eb9111d2-4ed9-4be2-9791-a7ba49767730)
  )
  (fp_text value "Heatsink_Aavid-TV5G_TO220_Horizontal" (at -0.27 14.12) (layer "F.Fab")
    (effects (font (size 1 1) (thickness 0.15)))
    (tstamp 20b76d39-00da-4300-99e1-061d8758cfcc)
  )
  (fp_text user "${REFERENCE}" (at 0 -4) (layer "F.Fab")
    (effects (font (size 1 1) (thickness 0.15)))
    (tstamp 5a9e0de7-abad-4565-be2d-b230115136d2)
  )
  (fp_line (start -11.51 2) (end -9.71 -0.18) (layer "F.SilkS") (width 0.12) (tstamp 067ebbe4-dfa8-4525-87ee-546dc7bc9c0d))
  (fp_line (start -9.71 4.54) (end -9.71 2.39) (layer "F.SilkS") (width 0.12) (tstamp 0843e9a5-55e9-4d3c-b39c-9def8cb65567))
  (fp_line (start 9.71 12.7) (end -9.71 12.7) (layer "F.SilkS") (width 0.12) (tstamp 116b1387-b2fd-45a5-a71d-a97902ad2514))
  (fp_line (start 9.69 -2.25) (end 9.69 -0.15) (layer "F.SilkS") (width 0.12) (tstamp 18b486cd-e8cd-42e3-9310-0a7eac160ad8))
  (fp_line (start -9.71 7.14) (end -10.26 7.8) (layer "F.SilkS") (width 0.12) (tstamp 1ab27fa0-c82a-4dc1-af8d-d991dd499a54))
  (fp_line (start 11.49 11.75) (end 10.19 12.75) (layer "F.SilkS") (width 0.12) (tstamp 1cb26091-4e81-4088-9b39-15eccb0f4513))
  (fp_line (start -11.51 -2.8) (end -9.7 -4.91) (layer "F.SilkS") (width 0.12) (tstamp 1da9c02e-a9e0-488a-8b74-c435660bfdca))
  (fp_line (start 10.19 -1.55) (end 9.69 -2.25) (layer "F.SilkS") (width 0.12) (tstamp 2111ea3b-63e1-4155-ace2-62917ce93e8e))
  (fp_line (start 11.49 7) (end 10.24 8) (layer "F.SilkS") (width 0.12) (tstamp 2a345209-cfa9-4ada-a851-1e413a53330b))
  (fp_line (start -10.36 3.15) (end -11.51 2) (layer "F.SilkS") (width 0.12) (tstamp 2c1f70cd-db8d-46f0-86ce-1e5d9ba9c210))
  (fp_line (start -9.71 -4.94) (end -9.71 -6.45) (layer "F.SilkS") (width 0.12) (tstamp 332e0af6-8302-44fa-b9d2-914e5c75123d))
  (fp_line (start 10.19 12.75) (end 9.71 12.1) (layer "F.SilkS") (width 0.12) (tstamp 3ef25855-4210-4666-b37a-d5c6631ea470))
  (fp_line (start 9.69 7.3) (end 9.69 9.3) (layer "F.SilkS") (width 0.12) (tstamp 3f01feec-3e64-4196-bf43-e4946337fda3))
  (fp_line (start -9.71 9.32) (end -9.71 7.15) (layer "F.SilkS") (width 0.12) (tstamp 41251ed5-11c6-4c08-8fc9-fecc8e1ddf8c))
  (fp_line (start 9.71 -6.45) (end 9.71 -4.9) (layer "F.SilkS") (width 0.12) (tstamp 4f50aca0-3392-46f0-99e1-e74018108ded))
  (fp_line (start -10.26 12.55) (end -11.51 11.4) (layer "F.SilkS") (width 0.12) (tstamp 5a6fabc5-438c-4298-8781-0397108decec))
  (fp_line (start 9.69 2.6) (end 9.69 4.55) (layer "F.SilkS") (width 0.12) (tstamp 5d8d48d2-1104-401d-943b-010adc08d2f4))
  (fp_line (start 9.69 -4.9) (end 11.44 -2.5) (layer "F.SilkS") (width 0.12) (tstamp 5da18bb4-17c1-4f74-8c66-1aab9d3b809a))
  (fp_line (start 11.44 -2.5) (end 10.19 -1.55) (layer "F.SilkS") (width 0.12) (tstamp 652e439a-f3fe-4b27-86dd-e33b6c0e241b))
  (fp_line (start -10.26 -1.7) (end -11.51 -2.8) (layer "F.SilkS") (width 0.12) (tstamp 6c8cf366-531a-4884-86a8-f7b1f04cf1ec))
  (fp_line (start 9.69 -0.15) (end 11.49 2.35) (layer "F.SilkS") (width 0.12) (tstamp 761d73c8-54a2-4fcd-a0a9-8203265981c2))
  (fp_line (start 9.71 12.1) (end 9.71 12.7) (layer "F.SilkS") (width 0.12) (tstamp 7868053d-8779-42fb-9649-cb7139543817))
  (fp_line (start 10.24 3.35) (end 9.69 2.6) (layer "F.SilkS") (width 0.12) (tstamp 7b1347a6-2955-48ce-9292-1fccba79690e))
  (fp_line (start 9.69 4.55) (end 11.49 7) (layer "F.SilkS") (width 0.12) (tstamp 81ef5b02-e7be-4a8c-8a10-249faeb73f36))
  (fp_line (start -9.71 2.39) (end -10.36 3.15) (layer "F.SilkS") (width 0.12) (tstamp 8af6de14-c5ff-408d-b878-1a7082c933aa))
  (fp_line (start 9.69 9.3) (end 11.49 11.75) (layer "F.SilkS") (width 0.12) (tstamp 8efd28fb-328e-4118-a45e-1585e1b36aba))
  (fp_line (start -11.51 6.7) (end -9.71 4.55) (layer "F.SilkS") (width 0.12) (tstamp a9d0a784-650e-49e3-8589-c915589e6dc1))
  (fp_line (start -9.71 -2.36) (end -10.26 -1.7) (layer "F.SilkS") (width 0.12) (tstamp c7131774-6e44-4036-a42e-721b92e0d4cd))
  (fp_line (start -9.71 11.9) (end -10.26 12.55) (layer "F.SilkS") (width 0.12) (tstamp cea0edac-de3f-445a-aa83-7fef4c913d6f))
  (fp_line (start -9.69 -6.45) (end 9.69 -6.45) (layer "F.SilkS") (width 0.12) (tstamp cfad3f0c-f93c-46c6-abd6-603feed020cb))
  (fp_line (start -9.71 -0.19) (end -9.71 -2.35) (layer "F.SilkS") (width 0.12) (tstamp d599c875-dd03-4f4d-87b6-8d1bafaaac8d))
  (fp_line (start -11.51 11.4) (end -9.71 9.32) (layer "F.SilkS") (width 0.12) (tstamp d7c87541-2af4-4d01-b04c-edaeb00526ab))
  (fp_line (start -10.26 7.8) (end -11.51 6.7) (layer "F.SilkS") (width 0.12) (tstamp d82e41b9-3f0b-42f4-b24d-3c632a0c258b))
  (fp_line (start -9.71 12.7) (end -9.71 11.9) (layer "F.SilkS") (width 0.12) (tstamp e4152b93-041d-4f9b-8884-9af3a51fc106))
  (fp_line (start 11.54 2.4) (end 10.24 3.35) (layer "F.SilkS") (width 0.12) (tstamp e9bf3137-c5d8-4aad-b089-0618efebbdba))
  (fp_line (start 10.24 8) (end 9.69 7.3) (layer "F.SilkS") (width 0.12) (tstamp faf2be7b-0b1b-4444-8870-31fb11fe872a))
  (fp_circle (center 0.09 0) (end 2.29 -0.1) (layer "F.SilkS") (width 0.12) (fill none) (tstamp 046bf22f-3946-4a1d-a221-c8b916ecb86a))
  (fp_line (start -11.65 12.9) (end 11.65 12.9) (layer "F.CrtYd") (width 0.05) (tstamp 3fff775d-9de1-4435-82f6-7ab8d9a51ce4))
  (fp_line (start -11.65 -6.6) (end -11.65 12.9) (layer "F.CrtYd") (width 0.05) (tstamp 75442e5b-8c23-4c43-8f8d-e291676bb8c0))
  (fp_line (start 11.65 -6.6) (end -11.65 -6.6) (layer "F.CrtYd") (width 0.05) (tstamp 7ae31780-327b-43de-848e-af5b2d06c8a0))
  (fp_line (start 11.65 12.9) (end 11.65 -6.6) (layer "F.CrtYd") (width 0.05) (tstamp f74e5e48-af40-4519-82d7-20ae650f911c))
  (fp_line (start -10.35 3.0124) (end -7.3 -0.6376) (layer "F.Fab") (width 0.1) (tstamp 03995321-d80a-4c55-95ef-93ba5b55de7f))
  (fp_line (start 8.515 3.125) (end 11.4 7.0124) (layer "F.Fab") (width 0.1) (tstamp 0f0f24ac-dff4-4b84-bf9d-72778fd7ad4e))
  (fp_line (start 11.39 -2.525) (end 8.61 -6.34) (layer "F.Fab") (width 0.1) (tstamp 1155d63e-ca71-4a09-bc9b-b25a1d75dfbb))
  (fp_line (start -8.4 -6.3376) (end -11.4 -2.7876) (layer "F.Fab") (width 0.1) (tstamp 129fd6ea-2ad2-427f-9dc9-e8e6cb5380c4))
  (fp_line (start 9.6 -6.35) (end -9.6 -6.35) (layer "F.Fab") (width 0.1) (tstamp 155b98d4-2a02-403b-a58c-7db960ecdab5))
  (fp_line (start 10.2 12.6624) (end 11.4 11.7624) (layer "F.Fab") (width 0.1) (tstamp 20d1891d-6c52-4f97-b2a4-a8ea851b903c))
  (fp_line (start -7.3 -0.6376) (end -8.4 -1.5876) (layer "F.Fab") (width 0.1) (tstamp 215977ea-a0b3-4461-b075-c962d76b73b5))
  (fp_line (start -11.4 11.4124) (end -10.285 12.425) (layer "F.Fab") (width 0.1) (tstamp 24f5fae9-ccae-486c-beff-69d2d3bc9538))
  (fp_line (start 11.4 11.7624) (end 8.5 7.8624) (layer "F.Fab") (width 0.1) (tstamp 263da6a3-103b-499f-b9ed-3e405a3021ed))
  (fp_line (start 11.4 7.0124) (end 10.25 7.9124) (layer "F.Fab") (width 0.1) (tstamp 28adc43d-92cd-4fee-b0ed-2d9ad1af721a))
  (fp_line (start -10.285 -1.8) (end -7.4 -5.2876) (layer "F.Fab") (width 0.1) (tstamp 322d329e-9883-4ac0-9556-a6a945763a87))
  (fp_line (start 8.55 -6.33) (end 7.4 -5.5376) (layer "F.Fab") (width 0.1) (tstamp 349dc59c-b123-470d-9969-e1201ddbfaba))
  (fp_line (start 10.25 7.9124) (end 7.35 3.9624) (layer "F.Fab") (width 0.1) (tstamp 38d1986b-4d3d-4ae4-938f-4af854de70ed))
  (fp_line (start 7.4 -5.5376) (end 10.2 -1.6376) (layer "F.Fab") (width 0.1) (tstamp 3afdc465-7cb4-4ea3-9c83-e18bf2cf7288))
  (fp_line (start -7.25 4.1124) (end -10.3 7.7124) (layer "F.Fab") (width 0.1) (tstamp 3cd9d047-433a-4229-9568-b22c38dedc26))
  (fp_line (start -11.4 6.7124) (end -8.35 3.1124) (layer "F.Fab") (width 0.1) (tstamp 3e3e041b-7f2d-4f15-ba01-b52ea600bb82))
  (fp_line (start 9.6 2.3124) (end 9.6 4.5624) (layer "F.Fab") (width 0.1) (tstamp 40c68dd9-df06-4f27-b401-b16f877f2aaf))
  (fp_line (start 8.1 0.2624) (end 8.1 3.4124) (layer "F.Fab") (width 0.1) (tstamp 41d2224d-f480-4b03-a5f8-535daa8b843f))
  (fp_line (start 10.2 -1.6376) (end 11.39 -2.525) (layer "F.Fab") (width 0.1) (tstamp 447e358b-8316-41a7-a26d-9a83410803e3))
  (fp_line (start -11.4 11.4124) (end -8.35 7.8624) (layer "F.Fab") (width 0.1) (tstamp 48c88831-bc08-40f1-8f37-160f528bdd5e))
  (fp_line (start 7.35 -0.7876) (end 8.5 -1.6376) (layer "F.Fab") (width 0.1) (tstamp 4f82d76e-9053-4070-b8b9-b35bbbb8e9da))
  (fp_line (start 8.1 -4.5376) (end 8.1 -1.3876) (layer "F.Fab") (width 0.1) (tstamp 5429cf59-6173-4037-a28d-ed96fa09cd1e))
  (fp_line (start -8.1 0.34) (end -8.1 3.33) (layer "F.Fab") (width 0.1) (tstamp 608096f9-814f-4d62-a58c-327cf43610eb))
  (fp_line (start 9.6 -2.4376) (end 9.6 -0.1376) (layer "F.Fab") (width 0.1) (tstamp 613e2892-4ebe-477d-b23c-4ad8b06bcc94))
  (fp_line (start -9.6 2.13) (end -9.6 4.56) (layer "F.Fab") (width 0.1) (tstamp 63cdefc0-c249-4460-a1ce-b017764f551d))
  (fp_line (start -8.35 3.1124) (end -7.25 4.1124) (layer "F.Fab") (width 0.1) (tstamp 6955d675-44a9-487b-a210-5854fec74044))
  (fp_line (start -8.1 5.13) (end -8.1 8.08) (layer "F.Fab") (width 0.1) (tstamp 707b8cdb-2a07-4b1b-9623-ffd686b4e757))
  (fp_line (start -11.4 1.9624) (end -10.35 3.0124) (layer "F.Fab") (width 0.1) (tstamp 74cf8a0a-d0b4-4172-b113-6d404cdf924c))
  (fp_line (start -7.25 8.8124) (end -10.26 12.4) (layer "F.Fab") (width 0.1) (tstamp 7520df5a-5e6a-4213-bfe7-ebb82aaa85e7))
  (fp_line (start 8.1 9.8124) (end 8.1 12.6124) (layer "F.Fab") (width 0.1) (tstamp 7e93e255-91ed-4cc7-9241-c0f881d6b84b))
  (fp_line (start 9.6 -6.3376) (end 9.6 -4.98) (layer "F.Fab") (width 0.1) (tstamp 8b0f6a5d-4318-4a6d-b408-b0ff71231e51))
  (fp_line (start 7.35 3.9624) (end 8.5 3.1124) (layer "F.Fab") (width 0.1) (tstamp 8f77296d-75d5-4356-94d9-acdba826f101))
  (fp_line (start -9.6 11.61) (end -9.6 12.65) (layer "F.Fab") (width 0.1) (tstamp 925e6f43-1de7-4bb1-9afc-f02136970a18))
  (fp_line (start 8.5 7.8624) (end 7.35 8.7624) (layer "F.Fab") (width 0.1) (tstamp 99646c33-3e31-4a5f-822b-960899426afd))
  (fp_line (start -9.6 12.65) (end 9.6 12.65) (layer "F.Fab") (width 0.1) (tstamp a46c49c9-5fa4-4690-8275-f407093da3f1))
  (fp_line (start -8.35 7.8624) (end -7.25 8.8124) (layer "F.Fab") (width 0.1) (tstamp ae196345-933c-4176-a81e-abe35eaa586f))
  (fp_line (start -11.4 1.9624) (end -8.4 -1.5876) (layer "F.Fab") (width 0.1) (tstamp b19cb88d-50ed-40ad-8ea3-259e2dc21bea))
  (fp_line (start -9.6 -2.63) (end -9.6 -0.18) (layer "F.Fab") (width 0.1) (tstamp b4cac7a5-e7f5-4aac-8923-3aa3bb08dcc9))
  (fp_line (start 7.35 8.7624) (end 10.2 12.6624) (layer "F.Fab") (width 0.1) (tstamp bae42a82-32e2-4358-884a-3c14cb8ecc2a))
  (fp_line (start 9.6 7.0624) (end 9.6 9.3124) (layer "F.Fab") (width 0.1) (tstamp bb213c84-8046-47f3-96b5-5be92f48202d))
  (fp_line (start -10.3 7.7124) (end -11.4 6.7124) (layer "F.Fab") (width 0.1) (tstamp bb56f6db-e1fa-4817-9502-bf6a41554ad3))
  (fp_line (start 11.39 2.375) (end 10.25 3.2124) (layer "F.Fab") (width 0.12) (tstamp c18330cf-42f5-4031-8242-1b8d394811a1))
  (fp_line (start -8.35 -6.2876) (end -7.3 -5.3876) (layer "F.Fab") (width 0.1) (tstamp c3b037af-a0e6-46ed-be61-3f5f566f0bb6))
  (fp_line (start 8.1 5.0124) (end 8.1 8.1624) (layer "F.Fab") (width 0.1) (tstamp c6743cdf-299b-44f7-981d-434bc6fe1315))
  (fp_line (start -8.1 9.86) (end -8.1 12.65) (layer "F.Fab") (width 0.1) (tstamp c6c782be-c5ce-410e-97d9-23194292e6a1))
  (fp_line (start 9.6 11.8624) (end 9.6 12.6124) (layer "F.Fab") (width 0.1) (tstamp cca88fdd-2ba9-4a56-9310-534bfd54cf20))
  (fp_line (start -9.6 6.88) (end -9.6 9.3) (layer "F.Fab") (width 0.1) (tstamp d4627a6b-25b8-462d-b154-5f89d15efe8e))
  (fp_line (start -7.3 -5.3876) (end -7.4 -5.2876) (layer "F.Fab") (width 0.1) (tstamp d5c5aa37-efcc-4187-9036-2e86fc390788))
  (fp_line (start -11.4 -2.7876) (end -10.285 -1.8) (layer "F.Fab") (width 0.1) (tstamp d828c9cd-a39d-42f4-879b-a00f2fdf3621))
  (fp_line (start 8.5 -1.6376) (end 11.4 2.3624) (layer "F.Fab") (width 0.1) (tstamp e330bd7f-be67-4284-9228-1dc652f2f5b6))
  (fp_line (start 10.25 3.2124) (end 7.35 -0.7876) (layer "F.Fab") (width 0.1) (tstamp e38601cb-343c-4a40-bc2b-747862e0e656))
  (fp_line (start -8.1 -6.3376) (end -8.1 -6.07) (layer "F.Fab") (width 0.1) (tstamp f6afb8d8-d0d9-4a9c-b199-5bc17a899fbb))
  (fp_line (start -9.6 -6.35) (end -9.6 -4.95) (layer "F.Fab") (width 0.1) (tstamp fc313cd2-2194-4088-a7bb-e8d5b0fad585))
  (fp_line (start -8.1 -4.44) (end -8.1 -1.35) (layer "F.Fab") (width 0.1) (tstamp fdc9436e-56a8-45a2-8ef0-2411f159f8bc))
  (fp_line (start 8.1 -6.35) (end 8.1 -6.03) (layer "F.Fab") (width 0.1) (tstamp ff8ec6c7-af5d-4d34-94c1-04a84bc4c530))
  (fp_circle (center 0.09 0) (end 2.09 0.1) (layer "F.Fab") (width 0.1) (fill none) (tstamp f213c53c-5176-4944-b9db-f48af264caa7))
  (model "${KICAD6_3DMODEL_DIR}/Heatsink.3dshapes/Heatsink_Aavid-TV5G_TO220_Horizontal.wrl"
    (offset (xyz 0 0 0))
    (scale (xyz 1 1 1))
    (rotate (xyz 0 0 0))
  )
)
