(footprint "Particle_P1" (version 20211014) (generator pcbnew)
  (layer "F.Cu")
  (tedit 5A030172)
  (descr "https://docs.particle.io/datasheets/p1-datasheet/")
  (tags "Particle P1")
  (attr smd)
  (fp_text reference "REF**" (at -8.09 14.84 180) (layer "F.SilkS")
    (effects (font (size 1 1) (thickness 0.15)))
    (tstamp cc2765c9-6d0d-42cf-80a3-48f542ebc62f)
  )
  (fp_text value "Particle_P1" (at 0 1.21) (layer "F.Fab")
    (effects (font (size 1 1) (thickness 0.15)))
    (tstamp 26b58e67-c62b-41fc-8888-450c23a4ac49)
  )
  (fp_text user "No metal, traces or" (at 0 -8.92) (layer "Cmts.User")
    (effects (font (size 1 1) (thickness 0.15)))
    (tstamp 0086a0c7-4ed8-44bf-84bb-8e64d03eeaa3)
  )
  (fp_text user "components on any layer" (at 0 -7.6) (layer "Cmts.User")
    (effects (font (size 1 1) (thickness 0.15)))
    (tstamp 11012e86-0545-4b08-a8cc-61460d4b9a1d)
  )
  (fp_text user "KEEP-OUT ZONE" (at 0 -11.34) (layer "Cmts.User")
    (effects (font (size 1 1) (thickness 0.15)))
    (tstamp 563ee31a-7963-4f16-8d03-9142a942359d)
  )
  (fp_text user "${REFERENCE}" (at 0 0) (layer "F.Fab")
    (effects (font (size 1 1) (thickness 0.15)))
    (tstamp 844c7c54-6d85-45b3-bfb2-8af2b798b340)
  )
  (fp_line (start 10.2 14.06) (end -10.2 14.06) (layer "F.SilkS") (width 0.12) (tstamp 397dd1c5-28e7-4414-b87b-f80ef5ab19c9))
  (fp_line (start -10.2 -14.34) (end 10.2 -14.34) (layer "F.SilkS") (width 0.12) (tstamp 7db45609-f4b5-4264-b74c-6f946961774e))
  (fp_line (start -10.2 14.06) (end -10.2 -14.34) (layer "F.SilkS") (width 0.12) (tstamp 96b25c59-6188-402f-8ee7-f9b451dd9f58))
  (fp_line (start 10.2 -14.34) (end 10.2 14.06) (layer "F.SilkS") (width 0.12) (tstamp b0a43e0b-34ee-4461-b0a0-e98ffa89ad2f))
  (fp_line (start 10 -11.55) (end 7.41 -14.14) (layer "Dwgs.User") (width 0.05) (tstamp 04609e55-27e9-409b-abce-89e9e070a6ac))
  (fp_line (start -10 -10.82) (end -2.23 -3.04) (layer "Dwgs.User") (width 0.05) (tstamp 0b5a87ad-9bfd-43a6-b32b-f3404e6d4bb0))
  (fp_line (start -10 -14.14) (end 10 -14.14) (layer "Dwgs.User") (width 0.05) (tstamp 119add15-8c24-4ffe-bc18-0a03e1c8aa30))
  (fp_line (start 10 -14.14) (end 10 -3.04) (layer "Dwgs.User") (width 0.05) (tstamp 1a3c66d9-9dfa-4374-8cfa-a400a1ad41b0))
  (fp_line (start 10 -3.77) (end -0.37 -14.14) (layer "Dwgs.User") (width 0.05) (tstamp 23fe9a90-9094-47a8-88a7-d0e84ac6b65c))
  (fp_line (start 2.96 -3.04) (end -8.14 -14.14) (layer "Dwgs.User") (width 0.05) (tstamp 24a35500-f43c-4ba6-b291-72208032a4a5))
  (fp_line (start 10 -3.04) (end -10 -3.04) (layer "Dwgs.User") (width 0.05) (tstamp 31d2d49b-089f-4292-8692-bbded9002541))
  (fp_line (start -10 -5.63) (end -7.4 -3.04) (layer "Dwgs.User") (width 0.05) (tstamp 480c2079-a4f9-437d-bab8-95adb1dfd52a))
  (fp_line (start -10 -13.41) (end 0.34 -3.04) (layer "Dwgs.User") (width 0.05) (tstamp 5ac89084-84f1-473f-a2b8-10fd7a54c942))
  (fp_line (start -10 -8.22) (end -4.82 -3.04) (layer "Dwgs.User") (width 0.05) (tstamp 63724783-f972-4f41-ba54-9bdd72d5d1b7))
  (fp_line (start -8.2121 -1.3521) (end -7.7879 -0.9279) (layer "Dwgs.User") (width 0.05) (tstamp 799e8e8e-3853-4052-9270-8cb6208c0595))
  (fp_line (start -10 -3.04) (end -10 -14.14) (layer "Dwgs.User") (width 0.05) (tstamp 871c8124-b724-4b3a-b0a2-c4a0014a357a))
  (fp_line (start -8.0776 -1.4298) (end -7.7102 -1.0624) (layer "Dwgs.User") (width 0.05) (tstamp 87b5d78a-74c8-43ed-825e-90efb514344b))
  (fp_line (start 10 -6.37) (end 2.23 -14.14) (layer "Dwgs.User") (width 0.05) (tstamp b98d02a5-a4ef-4bfd-9871-a8ff28776235))
  (fp_line (start 10 -8.96) (end 4.82 -14.14) (layer "Dwgs.User") (width 0.05) (tstamp d71d3422-7c7b-47a9-9984-4c59f751f438))
  (fp_line (start -8.2898 -1.2176) (end -7.9224 -0.8502) (layer "Dwgs.User") (width 0.05) (tstamp da7cd750-25ad-4e63-9d0f-47f89698e16e))
  (fp_line (start 5.55 -3.04) (end -5.55 -14.14) (layer "Dwgs.User") (width 0.05) (tstamp ef27ea51-e205-4e85-88f2-7bf7528fb2bf))
  (fp_line (start 8.14 -3.04) (end -2.96 -14.14) (layer "Dwgs.User") (width 0.05) (tstamp f533c18b-f1ca-4a9a-ba52-b2e4086cef37))
  (fp_circle (center -8 -1.14) (end -7.7 -1.14) (layer "Dwgs.User") (width 0.05) (fill none) (tstamp 9371aaf3-bcda-4a01-910a-20b8c98cc3e9))
  (fp_line (start -10.25 14.11) (end -10.25 -14.39) (layer "F.CrtYd") (width 0.05) (tstamp 330016c3-41c3-4de7-aa83-19f4292084d0))
  (fp_line (start 10.25 -14.39) (end -10.25 -14.39) (layer "F.CrtYd") (width 0.05) (tstamp 39584b3d-5604-43d9-b78f-b107b35ac9cf))
  (fp_line (start 10.25 -14.39) (end 10.25 14.11) (layer "F.CrtYd") (width 0.05) (tstamp 9a4ed7a7-409d-48dc-953e-317a3f7615ae))
  (fp_line (start -10.25 14.11) (end 10.25 14.11) (layer "F.CrtYd") (width 0.05) (tstamp fdac57b1-88bb-4d88-883f-074ef4b75168))
  (fp_line (start 10 13.86) (end 10 -14.14) (layer "F.Fab") (width 0.12) (tstamp 06e8d181-4da0-436e-8372-b242df620f92))
  (fp_line (start 10 -14.14) (end -10 -14.14) (layer "F.Fab") (width 0.12) (tstamp 51ab69d0-59e3-4dab-ae62-897ea4f5ac24))
  (fp_line (start -10 13.86) (end 10 13.86) (layer "F.Fab") (width 0.12) (tstamp b7e1827e-f048-480e-86fa-3f7b6d69c87d))
  (fp_line (start -10 13.86) (end -10 -14.14) (layer "F.Fab") (width 0.12) (tstamp d092386d-f105-4c53-a949-57c491d8db0a))
  (pad "1" smd rect (at -9.4 -1.64 270) (size 0.6 1.2) (layers "F.Cu" "F.Paste" "F.Mask") (tstamp 797252eb-868b-4f79-8f31-6443127f06d0))
  (pad "2" smd rect (at -9.4 -0.64 270) (size 0.6 1.2) (layers "F.Cu" "F.Paste" "F.Mask") (tstamp e0a9edd4-7abf-47b3-bc40-f35f75822371))
  (pad "3" smd rect (at -9.4 0.36 270) (size 0.6 1.2) (layers "F.Cu" "F.Paste" "F.Mask") (tstamp 9152fdd6-2e64-40cf-9196-b117c2b5a85d))
  (pad "4" smd rect (at -9.4 1.36 270) (size 0.6 1.2) (layers "F.Cu" "F.Paste" "F.Mask") (tstamp e8b65b3d-bee2-4fce-b3dd-73dda03d3804))
  (pad "5" smd rect (at -9.4 2.36 270) (size 0.6 1.2) (layers "F.Cu" "F.Paste" "F.Mask") (tstamp 079f0012-622b-4f42-a9e4-b704e25bca42))
  (pad "6" smd rect (at -9.4 3.36 270) (size 0.6 1.2) (layers "F.Cu" "F.Paste" "F.Mask") (tstamp 92d671ec-a95e-4c9c-a9b5-b82a33457849))
  (pad "7" smd rect (at -9.4 4.36 270) (size 0.6 1.2) (layers "F.Cu" "F.Paste" "F.Mask") (tstamp 0ca12d6f-6b33-4ecd-a5ef-e8badcbc73d6))
  (pad "8" smd rect (at -9.4 5.36 270) (size 0.6 1.2) (layers "F.Cu" "F.Paste" "F.Mask") (tstamp acf9e49c-103f-4044-9707-1f73e3ffdf88))
  (pad "9" smd rect (at -9.4 6.36 270) (size 0.6 1.2) (layers "F.Cu" "F.Paste" "F.Mask") (tstamp 656f094d-dc99-48e4-bc4d-0b90eb6ff9b1))
  (pad "10" smd rect (at -9.4 7.36 270) (size 0.6 1.2) (layers "F.Cu" "F.Paste" "F.Mask") (tstamp 78eff08b-745a-43b4-98ba-f032719e57b3))
  (pad "11" smd rect (at -9.4 8.36 270) (size 0.6 1.2) (layers "F.Cu" "F.Paste" "F.Mask") (tstamp 67598c79-ace7-49a8-8e8c-120cb6dddac6))
  (pad "12" smd rect (at -9.4 9.36 270) (size 0.6 1.2) (layers "F.Cu" "F.Paste" "F.Mask") (tstamp 2097aa7b-a08f-4aa8-80c3-282e9f8fb61e))
  (pad "13" smd rect (at -9.4 10.36 270) (size 0.6 1.2) (layers "F.Cu" "F.Paste" "F.Mask") (tstamp cebf8924-6dfe-4f76-bfb5-6c5e926b225c))
  (pad "14" smd rect (at -9.4 11.36 270) (size 0.6 1.2) (layers "F.Cu" "F.Paste" "F.Mask") (tstamp 8c9c2d5c-7b9c-4fc6-a8be-7c9f16c0c20a))
  (pad "15" smd rect (at -9.4 12.36 270) (size 0.6 1.2) (layers "F.Cu" "F.Paste" "F.Mask") (tstamp b910d420-306f-485d-87f9-29fa2b95d8ec))
  (pad "16" smd rect (at -8 13.26 270) (size 1.2 0.6) (layers "F.Cu" "F.Paste" "F.Mask") (tstamp 004a7655-35ee-4c53-a077-56d61db6313f))
  (pad "17" smd rect (at -7 13.26 270) (size 1.2 0.6) (layers "F.Cu" "F.Paste" "F.Mask") (tstamp fdece4d1-6e7b-46d7-b500-5abc9cf394a6))
  (pad "18" smd rect (at -6 13.26 270) (size 1.2 0.6) (layers "F.Cu" "F.Paste" "F.Mask") (tstamp 8cef084e-08b2-4a10-a0a9-2437d5beacf3))
  (pad "19" smd rect (at -5 13.26 270) (size 1.2 0.6) (layers "F.Cu" "F.Paste" "F.Mask") (tstamp ed423a00-ef8d-4491-8705-839119743d55))
  (pad "20" smd rect (at -4 13.26 270) (size 1.2 0.6) (layers "F.Cu" "F.Paste" "F.Mask") (tstamp f734cc55-298b-4cd9-8aa4-7a3a31a01dd5))
  (pad "21" smd rect (at -3 13.26 270) (size 1.2 0.6) (layers "F.Cu" "F.Paste" "F.Mask") (tstamp 62db95f5-42c6-4c04-b422-b2cff81c439d))
  (pad "22" smd rect (at -2 13.26 270) (size 1.2 0.6) (layers "F.Cu" "F.Paste" "F.Mask") (tstamp a4038dcb-c34a-4ef8-8d55-4da1b0f5d0af))
  (pad "23" smd rect (at -1 13.26 270) (size 1.2 0.6) (layers "F.Cu" "F.Paste" "F.Mask") (tstamp 9f3cbe6b-fda6-4277-bdbc-541b368ea0da))
  (pad "24" smd rect (at 0 13.26 270) (size 1.2 0.6) (layers "F.Cu" "F.Paste" "F.Mask") (tstamp 164f470c-35e6-4184-ad5a-ccb90415d9e3))
  (pad "25" smd rect (at 1 13.26 270) (size 1.2 0.6) (layers "F.Cu" "F.Paste" "F.Mask") (tstamp e7ecdec3-30bb-4497-836a-1334330a0dca))
  (pad "26" smd rect (at 2 13.26 270) (size 1.2 0.6) (layers "F.Cu" "F.Paste" "F.Mask") (tstamp 6c86837e-89f1-4cd8-bef4-f76dbc7a79ba))
  (pad "27" smd rect (at 3 13.26 270) (size 1.2 0.6) (layers "F.Cu" "F.Paste" "F.Mask") (tstamp bf076af0-3ee0-4ee8-8640-760a026be223))
  (pad "28" smd rect (at 4 13.26 270) (size 1.2 0.6) (layers "F.Cu" "F.Paste" "F.Mask") (tstamp 4feee84d-8225-4328-b5be-d79bf0252485))
  (pad "29" smd rect (at 5 13.26 270) (size 1.2 0.6) (layers "F.Cu" "F.Paste" "F.Mask") (tstamp dc4d7536-2a16-4d76-8946-090089102378))
  (pad "30" smd rect (at 6 13.26 270) (size 1.2 0.6) (layers "F.Cu" "F.Paste" "F.Mask") (tstamp 255dea73-0c3e-4a4d-bb72-447b57b12c23))
  (pad "31" smd rect (at 7 13.26 270) (size 1.2 0.6) (layers "F.Cu" "F.Paste" "F.Mask") (tstamp 8744cc75-1991-4884-9251-6cba235cfdf4))
  (pad "32" smd rect (at 8 13.26 270) (size 1.2 0.6) (layers "F.Cu" "F.Paste" "F.Mask") (tstamp 9d4ac768-9c78-40bd-8c74-8f579941c36c))
  (pad "33" smd rect (at 9.4 12.36 270) (size 0.6 1.2) (layers "F.Cu" "F.Paste" "F.Mask") (tstamp a3864e64-ae0d-43e9-9912-fccd92a4e79c))
  (pad "34" smd rect (at 9.4 11.36 270) (size 0.6 1.2) (layers "F.Cu" "F.Paste" "F.Mask") (tstamp b276e024-683b-4f27-a217-caf205393175))
  (pad "35" smd rect (at 9.4 10.36 270) (size 0.6 1.2) (layers "F.Cu" "F.Paste" "F.Mask") (tstamp dc4a8784-8f69-41ed-9f60-982a71cb3b40))
  (pad "36" smd rect (at 9.4 9.36 270) (size 0.6 1.2) (layers "F.Cu" "F.Paste" "F.Mask") (tstamp d2df7844-2105-4c44-b9a9-930c03d94370))
  (pad "37" smd rect (at 9.4 8.36 270) (size 0.6 1.2) (layers "F.Cu" "F.Paste" "F.Mask") (tstamp 188eace5-7e6b-47df-bb7a-08173da2f51e))
  (pad "38" smd rect (at 9.4 7.36 270) (size 0.6 1.2) (layers "F.Cu" "F.Paste" "F.Mask") (tstamp 61291927-8bff-438f-aefc-a7fa92e2677c))
  (pad "39" smd rect (at 9.4 6.36 270) (size 0.6 1.2) (layers "F.Cu" "F.Paste" "F.Mask") (tstamp b1a4a919-0289-41e0-94ae-c0caa3c7998f))
  (pad "40" smd rect (at 9.4 5.36 270) (size 0.6 1.2) (layers "F.Cu" "F.Paste" "F.Mask") (tstamp d22e2fd8-8d10-4004-8e8e-7d3ff91dc1fa))
  (pad "41" smd rect (at 9.4 4.36 270) (size 0.6 1.2) (layers "F.Cu" "F.Paste" "F.Mask") (tstamp 7d669867-83b7-488c-a4b1-bfeb9dc6b3d3))
  (pad "42" smd rect (at 9.4 3.36 270) (size 0.6 1.2) (layers "F.Cu" "F.Paste" "F.Mask") (tstamp 4decf30f-be47-4814-b014-f617a6f2c7d7))
  (pad "43" smd rect (at 9.4 2.36 270) (size 0.6 1.2) (layers "F.Cu" "F.Paste" "F.Mask") (tstamp 4a497ceb-720b-4abc-92ca-9f9092fc3429))
  (pad "44" smd rect (at 9.4 1.36 270) (size 0.6 1.2) (layers "F.Cu" "F.Paste" "F.Mask") (tstamp 07259424-459d-479e-91bb-1b37ff094bb5))
  (pad "45" smd rect (at 9.4 0.36 270) (size 0.6 1.2) (layers "F.Cu" "F.Paste" "F.Mask") (tstamp 17a3dc4b-91ff-445a-bcbf-34786b08394c))
  (pad "46" smd rect (at 9.4 -0.64 270) (size 0.6 1.2) (layers "F.Cu" "F.Paste" "F.Mask") (tstamp f2b2e79b-0ce4-49a0-80c6-205627846d7d))
  (pad "47" smd rect (at 9.4 -1.64 270) (size 0.6 1.2) (layers "F.Cu" "F.Paste" "F.Mask") (tstamp 50a7629d-e301-4915-9e2e-78b5aa0dbf48))
  (pad "48" smd rect (at 8 -2.44 270) (size 1.2 0.6) (layers "F.Cu" "F.Paste" "F.Mask") (tstamp 3c3e82af-e0f0-4750-8ae3-94722b0a2c3e))
  (pad "49" smd rect (at 7 -2.44 270) (size 1.2 0.6) (layers "F.Cu" "F.Paste" "F.Mask") (tstamp 360d1e80-c2c3-4df6-be3d-6c6ac044de6b))
  (pad "50" smd rect (at 6 -2.44 270) (size 1.2 0.6) (layers "F.Cu" "F.Paste" "F.Mask") (tstamp e259dcd2-d6ba-463c-bd24-e64872d0c24d))
  (pad "51" smd rect (at 5 -2.44 270) (size 1.2 0.6) (layers "F.Cu" "F.Paste" "F.Mask") (tstamp f2b090fb-2fcc-4f26-b355-f0b8258b1bbe))
  (pad "52" smd rect (at 4 -2.44 270) (size 1.2 0.6) (layers "F.Cu" "F.Paste" "F.Mask") (tstamp 48cc7459-12a9-465d-afa3-3bd95c2c8754))
  (pad "53" smd rect (at 3 -2.44 270) (size 1.2 0.6) (layers "F.Cu" "F.Paste" "F.Mask") (tstamp fa03ce6e-e1b0-4ab4-89a7-a7c654774f10))
  (pad "54" smd rect (at 2 -2.44 270) (size 1.2 0.6) (layers "F.Cu" "F.Paste" "F.Mask") (tstamp a3debfc0-bb90-4fc8-b3a5-965539ee2453))
  (pad "55" smd rect (at 1 -2.44 270) (size 1.2 0.6) (layers "F.Cu" "F.Paste" "F.Mask") (tstamp 44a78428-bef2-43b6-a1ca-7d9e8507cf85))
  (pad "56" smd rect (at 0 -2.44 270) (size 1.2 0.6) (layers "F.Cu" "F.Paste" "F.Mask") (tstamp 1f457dc2-723d-452d-93b2-686d563616e7))
  (pad "57" smd rect (at -1 -2.44 270) (size 1.2 0.6) (layers "F.Cu" "F.Paste" "F.Mask") (tstamp 376bf4e1-656e-490a-ba32-870b0f3adc94))
  (pad "58" smd rect (at -2 -2.44 270) (size 1.2 0.6) (layers "F.Cu" "F.Paste" "F.Mask") (tstamp 7b01125b-3ae9-411f-a8ce-b956fcf4a59b))
  (pad "59" smd rect (at -3 -2.44 270) (size 1.2 0.6) (layers "F.Cu" "F.Paste" "F.Mask") (tstamp c643bff4-16a6-4efd-981d-f347d99f5053))
  (pad "60" smd rect (at -4 -2.44 270) (size 1.2 0.6) (layers "F.Cu" "F.Paste" "F.Mask") (tstamp 66dfba29-5f2e-4724-9703-992a08b0a672))
  (pad "61" smd rect (at -5 -2.44 270) (size 1.2 0.6) (layers "F.Cu" "F.Paste" "F.Mask") (tstamp 6567c4cc-e708-42f5-a312-4fe530c212b5))
  (pad "62" smd rect (at -6 -2.44 270) (size 1.2 0.6) (layers "F.Cu" "F.Paste" "F.Mask") (tstamp c799d3fc-d9ba-4842-a387-04ea63ce48ab))
  (pad "63" smd rect (at -7 -2.44 270) (size 1.2 0.6) (layers "F.Cu" "F.Paste" "F.Mask") (tstamp b0ca0142-f58b-4e8a-8155-9e327e7c3d91))
  (pad "64" smd rect (at -8 -2.44 270) (size 1.2 0.6) (layers "F.Cu" "F.Paste" "F.Mask") (tstamp 8caac2d6-d703-4f0f-9517-b640948f5f40))
  (pad "65" smd rect (at -3.5 2.63 270) (size 1.2 1.2) (layers "F.Cu" "F.Paste" "F.Mask") (tstamp 701c18ef-a0f0-46b5-8326-8c174dec06b5))
  (pad "66" smd rect (at -3.5 5.63 270) (size 1.2 1.2) (layers "F.Cu" "F.Paste" "F.Mask") (tstamp 0c1fe164-2e9a-43dd-ab72-197d5768bf49))
  (pad "67" smd rect (at -3.5 8.63 270) (size 1.2 1.2) (layers "F.Cu" "F.Paste" "F.Mask") (tstamp b1a208fb-7a0f-4a30-8736-9bdd65cf2e9b))
  (pad "68" smd rect (at 0 2.63 270) (size 1.2 1.2) (layers "F.Cu" "F.Paste" "F.Mask") (tstamp 7f8287a0-c005-47c6-acce-da0a8016818d))
  (pad "69" smd rect (at 0 5.63 270) (size 1.2 1.2) (layers "F.Cu" "F.Paste" "F.Mask") (tstamp 82d6d159-b73f-4c99-a641-d3f3636f2706))
  (pad "70" smd rect (at 0 8.63 270) (size 1.2 1.2) (layers "F.Cu" "F.Paste" "F.Mask") (tstamp 5bb3990f-1d73-4e1d-ae80-50413e4ca1a4))
  (pad "71" smd rect (at 3.5 2.63 270) (size 1.2 1.2) (layers "F.Cu" "F.Paste" "F.Mask") (tstamp 6fca796c-6997-4b05-a62a-e0634e82d0e2))
  (pad "72" smd rect (at 3.5 5.63 270) (size 1.2 1.2) (layers "F.Cu" "F.Paste" "F.Mask") (tstamp de9bf429-e1c9-475c-8384-945a189d0738))
  (pad "73" smd rect (at 3.5 8.63 270) (size 1.2 1.2) (layers "F.Cu" "F.Paste" "F.Mask") (tstamp 3287b097-1dbb-418b-9da9-3ff584dbc818))
  (pad "74" smd rect (at 9.12 -13.26 270) (size 1.2 1.2) (layers "F.Cu" "F.Paste" "F.Mask") (tstamp 1a1648b4-4daa-47e1-9bb9-3afd33ce9374))
  (pad "75" smd rect (at -9.12 -13.26 270) (size 1.2 1.2) (layers "F.Cu" "F.Paste" "F.Mask") (tstamp d1427233-4868-4db6-ad9a-d111cfde2871))
  (model "${KICAD6_3DMODEL_DIR}/RF_Module.3dshapes/Particle_P1.wrl"
    (offset (xyz 0 0 0))
    (scale (xyz 1 1 1))
    (rotate (xyz 0 0 0))
  )
)
