(footprint "MountingHole_6mm_Pad_TopBottom" (version 20211014) (generator pcbnew)
  (layer "F.Cu")
  (tedit 56D1B4CB)
  (descr "Mounting Hole 6mm")
  (tags "mounting hole 6mm")
  (attr exclude_from_pos_files exclude_from_bom)
  (fp_text reference "REF**" (at 0 -7) (layer "F.SilkS")
    (effects (font (size 1 1) (thickness 0.15)))
    (tstamp 872de1ef-1cdf-4384-9162-867b9cef85ac)
  )
  (fp_text value "MountingHole_6mm_Pad_TopBottom" (at 0 7) (layer "F.Fab")
    (effects (font (size 1 1) (thickness 0.15)))
    (tstamp 0d55aaaf-4a10-4945-ae98-f3eaca3b1295)
  )
  (fp_text user "${REFERENCE}" (at 0.3 0) (layer "F.Fab")
    (effects (font (size 1 1) (thickness 0.15)))
    (tstamp 2c3fd43e-e965-4f17-8faa-a16d740e38a3)
  )
  (fp_circle (center 0 0) (end 6 0) (layer "Cmts.User") (width 0.15) (fill none) (tstamp bf34dc08-3696-4540-8a3b-02247a1e6db5))
  (fp_circle (center 0 0) (end 6.25 0) (layer "F.CrtYd") (width 0.05) (fill none) (tstamp 1a5af91d-95b3-435f-a1bc-eeb43d9248e6))
  (pad "1" thru_hole circle (at 0 0) (size 6.4 6.4) (drill 6) (layers *.Cu *.Mask) (tstamp 7144e17e-8094-441e-9dda-e5f188925731))
  (pad "1" connect circle (at 0 0) (size 12 12) (layers "B.Cu" "B.Mask") (tstamp aa7b4d8a-ad61-4377-ace3-24230b6d7a7f))
  (pad "1" connect circle (at 0 0) (size 12 12) (layers "F.Cu" "F.Mask") (tstamp bfd46745-6bb5-4e91-8136-70482b8b451c))
)
