(footprint "MountingHole_2.7mm_M2.5_ISO7380_Pad_TopBottom" (version 20211014) (generator pcbnew)
  (layer "F.Cu")
  (tedit 56D1B4CB)
  (descr "Mounting Hole 2.7mm, M2.5, ISO7380")
  (tags "mounting hole 2.7mm m2.5 iso7380")
  (attr exclude_from_pos_files exclude_from_bom)
  (fp_text reference "REF**" (at 0 -3.25) (layer "F.SilkS")
    (effects (font (size 1 1) (thickness 0.15)))
    (tstamp 79d9b9e0-1bd6-49cd-af81-88ab561a9fb3)
  )
  (fp_text value "MountingHole_2.7mm_M2.5_ISO7380_Pad_TopBottom" (at 0 3.25) (layer "F.Fab")
    (effects (font (size 1 1) (thickness 0.15)))
    (tstamp ef691c63-a686-4ebf-a204-60a9406253f0)
  )
  (fp_text user "${REFERENCE}" (at 0.3 0) (layer "F.Fab")
    (effects (font (size 1 1) (thickness 0.15)))
    (tstamp caa2ca42-c702-44ca-bbca-9924c2f80865)
  )
  (fp_circle (center 0 0) (end 2.25 0) (layer "Cmts.User") (width 0.15) (fill none) (tstamp 992af814-19c1-4e1d-a029-5af410b31ffa))
  (fp_circle (center 0 0) (end 2.5 0) (layer "F.CrtYd") (width 0.05) (fill none) (tstamp d8ddecee-70a6-4ef4-a9fb-19b59c4fec60))
  (pad "1" connect circle (at 0 0) (size 4.5 4.5) (layers "F.Cu" "F.Mask") (tstamp 198d8b33-0cb5-4962-ab8b-2745dfed5dfe))
  (pad "1" thru_hole circle (at 0 0) (size 3.1 3.1) (drill 2.7) (layers *.Cu *.Mask) (tstamp 93957ffd-2fb6-46eb-a8a1-f64e9b217597))
  (pad "1" connect circle (at 0 0) (size 4.5 4.5) (layers "B.Cu" "B.Mask") (tstamp f550ba47-da49-4beb-b844-6d3d008b27ea))
)
