(footprint "MountingHole_3.2mm_M3_DIN965_Pad_TopOnly" (version 20211014) (generator pcbnew)
  (layer "F.Cu")
  (tedit 56D1B4CB)
  (descr "Mounting Hole 3.2mm, M3, DIN965")
  (tags "mounting hole 3.2mm m3 din965")
  (attr exclude_from_pos_files exclude_from_bom)
  (fp_text reference "REF**" (at 0 -3.8) (layer "F.SilkS")
    (effects (font (size 1 1) (thickness 0.15)))
    (tstamp dc69ae86-aae2-4d54-9047-c57d5be325b1)
  )
  (fp_text value "MountingHole_3.2mm_M3_DIN965_Pad_TopOnly" (at 0 3.8) (layer "F.Fab")
    (effects (font (size 1 1) (thickness 0.15)))
    (tstamp 62947aba-e4e3-408d-8e60-75ee1d660412)
  )
  (fp_text user "${REFERENCE}" (at 0.3 0) (layer "F.Fab")
    (effects (font (size 1 1) (thickness 0.15)))
    (tstamp 7260bb4d-2274-4eda-9a37-a3068a7d99a9)
  )
  (fp_circle (center 0 0) (end 2.8 0) (layer "Cmts.User") (width 0.15) (fill none) (tstamp 84810a35-635b-4b9d-9eff-6229dc6d66f0))
  (fp_circle (center 0 0) (end 3.05 0) (layer "F.CrtYd") (width 0.05) (fill none) (tstamp 1f15379e-2261-4849-a2c4-e47e8855aaad))
  (pad "1" connect circle (at 0 0) (size 5.6 5.6) (layers "F.Cu" "F.Mask") (tstamp 42864e21-e8c1-4fac-9c58-c175fdb95d11))
  (pad "1" thru_hole circle (at 0 0) (size 3.6 3.6) (drill 3.2) (layers *.Cu *.Mask) (tstamp d001223d-8e09-4af5-95d2-32779f81fef7))
)
