(footprint "MountingHole_4.3mm_M4_ISO7380_Pad_TopOnly" (version 20211014) (generator pcbnew)
  (layer "F.Cu")
  (tedit 56D1B4CB)
  (descr "Mounting Hole 4.3mm, M4, ISO7380")
  (tags "mounting hole 4.3mm m4 iso7380")
  (attr exclude_from_pos_files exclude_from_bom)
  (fp_text reference "REF**" (at 0 -4.8) (layer "F.SilkS")
    (effects (font (size 1 1) (thickness 0.15)))
    (tstamp d6b5b54b-faca-4b7a-a87b-902e22dcbdd5)
  )
  (fp_text value "MountingHole_4.3mm_M4_ISO7380_Pad_TopOnly" (at 0 4.8) (layer "F.Fab")
    (effects (font (size 1 1) (thickness 0.15)))
    (tstamp 555a5a4c-14e3-45c4-9a64-e3113c3f9ca9)
  )
  (fp_text user "${REFERENCE}" (at 0.3 0) (layer "F.Fab")
    (effects (font (size 1 1) (thickness 0.15)))
    (tstamp a1498d63-e41d-46bc-a039-2ca33399c25a)
  )
  (fp_circle (center 0 0) (end 3.8 0) (layer "Cmts.User") (width 0.15) (fill none) (tstamp f50a1428-0050-4a0b-8ee4-b8cb7459f453))
  (fp_circle (center 0 0) (end 4.05 0) (layer "F.CrtYd") (width 0.05) (fill none) (tstamp 50d2ec40-dcad-4e7e-bf4b-e6a7bb9109d1))
  (pad "1" thru_hole circle (at 0 0) (size 4.7 4.7) (drill 4.3) (layers *.Cu *.Mask) (tstamp 68d64d18-0d00-4131-ac80-ce1da9533143))
  (pad "1" connect circle (at 0 0) (size 7.6 7.6) (layers "F.Cu" "F.Mask") (tstamp bb9559ad-59d9-4821-a5d0-5e57b26f6fc4))
)
