(footprint "MountingHole_3.7mm_Pad_Via" (version 20211014) (generator pcbnew)
  (layer "F.Cu")
  (tedit 56DDBE44)
  (descr "Mounting Hole 3.7mm")
  (tags "mounting hole 3.7mm")
  (attr exclude_from_pos_files exclude_from_bom)
  (fp_text reference "REF**" (at 0 -4.7) (layer "F.SilkS")
    (effects (font (size 1 1) (thickness 0.15)))
    (tstamp c256ce69-90f2-4886-aa86-687919b2d230)
  )
  (fp_text value "MountingHole_3.7mm_Pad_Via" (at 0 4.7) (layer "F.Fab")
    (effects (font (size 1 1) (thickness 0.15)))
    (tstamp 1acf31aa-b24c-4493-b280-4537b5f90e2c)
  )
  (fp_text user "${REFERENCE}" (at 0.3 0) (layer "F.Fab")
    (effects (font (size 1 1) (thickness 0.15)))
    (tstamp 3df00955-c5ac-4011-8d57-6521a7043c67)
  )
  (fp_circle (center 0 0) (end 3.7 0) (layer "Cmts.User") (width 0.15) (fill none) (tstamp 96172762-f43d-4dc0-ad9c-2e560c590cfd))
  (fp_circle (center 0 0) (end 3.95 0) (layer "F.CrtYd") (width 0.05) (fill none) (tstamp 1b36fd21-08b3-481f-8324-0de630b7360b))
  (pad "1" thru_hole circle (at -2.775 0) (size 0.8 0.8) (drill 0.5) (layers *.Cu *.Mask) (tstamp 349d9db1-fafa-4855-b381-e13b7d117471))
  (pad "1" thru_hole circle (at 0 0) (size 7.4 7.4) (drill 3.7) (layers *.Cu *.Mask) (tstamp 5c406e64-675d-46b7-bdf2-e800fafb661e))
  (pad "1" thru_hole circle (at 0 -2.775) (size 0.8 0.8) (drill 0.5) (layers *.Cu *.Mask) (tstamp 971bda3e-2034-4f1c-9d3e-04ca2300aa78))
  (pad "1" thru_hole circle (at -1.962221 -1.962221) (size 0.8 0.8) (drill 0.5) (layers *.Cu *.Mask) (tstamp ad97fbf4-269a-4ad9-a8c4-1366d0ae82e4))
  (pad "1" thru_hole circle (at -1.962221 1.962221) (size 0.8 0.8) (drill 0.5) (layers *.Cu *.Mask) (tstamp ae0d9af9-d8b6-421b-af7e-f779f37fe938))
  (pad "1" thru_hole circle (at 0 2.775) (size 0.8 0.8) (drill 0.5) (layers *.Cu *.Mask) (tstamp b2143b2e-f006-4b23-8fcc-1bc9a3bf3d60))
  (pad "1" thru_hole circle (at 1.962221 1.962221) (size 0.8 0.8) (drill 0.5) (layers *.Cu *.Mask) (tstamp c2562272-054b-42c2-8047-f634b2ab05b6))
  (pad "1" thru_hole circle (at 2.775 0) (size 0.8 0.8) (drill 0.5) (layers *.Cu *.Mask) (tstamp ec06a3bb-d068-430e-9389-0c12625b9673))
  (pad "1" thru_hole circle (at 1.962221 -1.962221) (size 0.8 0.8) (drill 0.5) (layers *.Cu *.Mask) (tstamp f9bf07e8-7d26-4f9a-9111-026b03582db7))
)
