(footprint "MountingHole_6.5mm" (version 20211014) (generator pcbnew)
  (layer "F.Cu")
  (tedit 56D1B4CB)
  (descr "Mounting Hole 6.5mm, no annular")
  (tags "mounting hole 6.5mm no annular")
  (attr exclude_from_pos_files exclude_from_bom)
  (fp_text reference "REF**" (at 0 -7.5) (layer "F.SilkS")
    (effects (font (size 1 1) (thickness 0.15)))
    (tstamp 37f1278a-aa7a-48ad-9b89-d83d3f5bd233)
  )
  (fp_text value "MountingHole_6.5mm" (at 0 7.5) (layer "F.Fab")
    (effects (font (size 1 1) (thickness 0.15)))
    (tstamp b595de61-bb87-4b35-bfe2-d0314393ceaa)
  )
  (fp_text user "${REFERENCE}" (at 0.3 0) (layer "F.Fab")
    (effects (font (size 1 1) (thickness 0.15)))
    (tstamp d9454e1a-3d17-4872-b2e3-3249517d3de3)
  )
  (fp_circle (center 0 0) (end 6.5 0) (layer "Cmts.User") (width 0.15) (fill none) (tstamp 0466ae85-3bad-41eb-b6cf-616c4b24073e))
  (fp_circle (center 0 0) (end 6.75 0) (layer "F.CrtYd") (width 0.05) (fill none) (tstamp 5b013b9f-b9ac-4472-8d90-943de3bbd993))
  (pad "" np_thru_hole circle (at 0 0) (size 6.5 6.5) (drill 6.5) (layers *.Cu *.Mask) (tstamp c3c8b782-005b-43a5-bc2b-6b221aec4bce))
)
