(footprint "MountingHole_5mm_Pad" (version 20211014) (generator pcbnew)
  (layer "F.Cu")
  (tedit 56D1B4CB)
  (descr "Mounting Hole 5mm")
  (tags "mounting hole 5mm")
  (attr exclude_from_pos_files exclude_from_bom)
  (fp_text reference "REF**" (at 0 -6) (layer "F.SilkS")
    (effects (font (size 1 1) (thickness 0.15)))
    (tstamp 2e942c69-e39c-4ca8-ad5d-8081c89214ff)
  )
  (fp_text value "MountingHole_5mm_Pad" (at 0 6) (layer "F.Fab")
    (effects (font (size 1 1) (thickness 0.15)))
    (tstamp 94bf9470-1502-45c2-aeb9-c8873781c991)
  )
  (fp_text user "${REFERENCE}" (at 0.3 0) (layer "F.Fab")
    (effects (font (size 1 1) (thickness 0.15)))
    (tstamp 74ecfcec-909f-4eae-8d60-9cde9e7efb75)
  )
  (fp_circle (center 0 0) (end 5 0) (layer "Cmts.User") (width 0.15) (fill none) (tstamp 17e9c600-20d6-4308-a622-4307d15c4bf3))
  (fp_circle (center 0 0) (end 5.25 0) (layer "F.CrtYd") (width 0.05) (fill none) (tstamp 21b05552-9046-4e44-b683-b90b374acf75))
  (pad "1" thru_hole circle (at 0 0) (size 10 10) (drill 5) (layers *.Cu *.Mask) (tstamp e68cf5f8-be6d-4fdb-b214-065bf3845276))
)
