(footprint "MountingHole_5.3mm_M5_DIN965_Pad_TopBottom" (version 20211014) (generator pcbnew)
  (layer "F.Cu")
  (tedit 56D1B4CB)
  (descr "Mounting Hole 5.3mm, M5, DIN965")
  (tags "mounting hole 5.3mm m5 din965")
  (attr exclude_from_pos_files exclude_from_bom)
  (fp_text reference "REF**" (at 0 -5.6) (layer "F.SilkS")
    (effects (font (size 1 1) (thickness 0.15)))
    (tstamp e42e6936-7fc8-4e03-8667-96884a5e0a68)
  )
  (fp_text value "MountingHole_5.3mm_M5_DIN965_Pad_TopBottom" (at 0 5.6) (layer "F.Fab")
    (effects (font (size 1 1) (thickness 0.15)))
    (tstamp f4c32a75-0dec-4b87-8907-6de0aafb0113)
  )
  (fp_text user "${REFERENCE}" (at 0.3 0) (layer "F.Fab")
    (effects (font (size 1 1) (thickness 0.15)))
    (tstamp 503aa0a4-491a-4198-af81-95b9759ca12a)
  )
  (fp_circle (center 0 0) (end 4.6 0) (layer "Cmts.User") (width 0.15) (fill none) (tstamp 0fd82b0d-ffeb-4e4c-a6f1-3db06cb10bc9))
  (fp_circle (center 0 0) (end 4.85 0) (layer "F.CrtYd") (width 0.05) (fill none) (tstamp c81443ed-ae62-47ec-b3e6-b08c37b5375f))
  (pad "1" connect circle (at 0 0) (size 9.2 9.2) (layers "F.Cu" "F.Mask") (tstamp 1004d999-ab2f-4958-94f1-9fbdcd5c0c4f))
  (pad "1" connect circle (at 0 0) (size 9.2 9.2) (layers "B.Cu" "B.Mask") (tstamp 4b90e84a-a778-4f95-9f52-65f81dde0fbd))
  (pad "1" thru_hole circle (at 0 0) (size 5.7 5.7) (drill 5.3) (layers *.Cu *.Mask) (tstamp 880bbd91-8415-4da0-8f47-4d13e960835b))
)
