(footprint "MountingHole_2.2mm_M2_ISO7380_Pad_TopOnly" (version 20211014) (generator pcbnew)
  (layer "F.Cu")
  (tedit 56D1B4CB)
  (descr "Mounting Hole 2.2mm, M2, ISO7380")
  (tags "mounting hole 2.2mm m2 iso7380")
  (attr exclude_from_pos_files exclude_from_bom)
  (fp_text reference "REF**" (at 0 -2.75) (layer "F.SilkS")
    (effects (font (size 1 1) (thickness 0.15)))
    (tstamp 2c3be16a-2831-448d-80a9-61400e24a3c5)
  )
  (fp_text value "MountingHole_2.2mm_M2_ISO7380_Pad_TopOnly" (at 0 2.75) (layer "F.Fab")
    (effects (font (size 1 1) (thickness 0.15)))
    (tstamp b233fbc7-4a8e-46a2-ad69-77efc16fe539)
  )
  (fp_text user "${REFERENCE}" (at 0.3 0) (layer "F.Fab")
    (effects (font (size 1 1) (thickness 0.15)))
    (tstamp 695c1660-fd9e-4c24-80a5-0e5118e9f3e6)
  )
  (fp_circle (center 0 0) (end 1.75 0) (layer "Cmts.User") (width 0.15) (fill none) (tstamp 8bf36199-4a08-4adc-afe2-e5beaf8dd66b))
  (fp_circle (center 0 0) (end 2 0) (layer "F.CrtYd") (width 0.05) (fill none) (tstamp 04d77d39-0d26-47e2-a8d6-e5a0dfe2d053))
  (pad "1" thru_hole circle (at 0 0) (size 2.6 2.6) (drill 2.2) (layers *.Cu *.Mask) (tstamp 36a587eb-d4a0-43f6-9761-3eb64dfa31ac))
  (pad "1" connect circle (at 0 0) (size 3.5 3.5) (layers "F.Cu" "F.Mask") (tstamp 7e435c19-786a-4577-8b4d-240e6ac4b844))
)
