(footprint "MountingHole_2.5mm_Pad_TopBottom" (version 20211014) (generator pcbnew)
  (layer "F.Cu")
  (tedit 56D1B4CB)
  (descr "Mounting Hole 2.5mm")
  (tags "mounting hole 2.5mm")
  (attr exclude_from_pos_files exclude_from_bom)
  (fp_text reference "REF**" (at 0 -3.5) (layer "F.SilkS")
    (effects (font (size 1 1) (thickness 0.15)))
    (tstamp 6521688c-9cb3-4963-87a6-e5f2ca1ec7ae)
  )
  (fp_text value "MountingHole_2.5mm_Pad_TopBottom" (at 0 3.5) (layer "F.Fab")
    (effects (font (size 1 1) (thickness 0.15)))
    (tstamp 50eacbf5-a1ef-4de4-994f-6b5c6c2ae356)
  )
  (fp_text user "${REFERENCE}" (at 0.3 0) (layer "F.Fab")
    (effects (font (size 1 1) (thickness 0.15)))
    (tstamp d816e7a2-feab-422c-a1c3-6f661e5f71e7)
  )
  (fp_circle (center 0 0) (end 2.5 0) (layer "Cmts.User") (width 0.15) (fill none) (tstamp e49db1e2-77e5-4547-a878-f247f3e58477))
  (fp_circle (center 0 0) (end 2.75 0) (layer "F.CrtYd") (width 0.05) (fill none) (tstamp 3ba33105-3ef1-4229-93e9-e24a03e21edf))
  (pad "1" connect circle (at 0 0) (size 5 5) (layers "B.Cu" "B.Mask") (tstamp 6d61bdff-1ae4-4ca7-8432-7d1f3213e02b))
  (pad "1" connect circle (at 0 0) (size 5 5) (layers "F.Cu" "F.Mask") (tstamp f8a79583-7287-4f5f-aa77-6c601f1c090f))
  (pad "1" thru_hole circle (at 0 0) (size 2.9 2.9) (drill 2.5) (layers *.Cu *.Mask) (tstamp fc48aef9-19d8-4a8a-be63-9cf9c7e175d3))
)
