(footprint "MountingHole_5.3mm_M5_ISO14580_Pad" (version 20211014) (generator pcbnew)
  (layer "F.Cu")
  (tedit 56D1B4CB)
  (descr "Mounting Hole 5.3mm, M5, ISO14580")
  (tags "mounting hole 5.3mm m5 iso14580")
  (attr exclude_from_pos_files exclude_from_bom)
  (fp_text reference "REF**" (at 0 -5.25) (layer "F.SilkS")
    (effects (font (size 1 1) (thickness 0.15)))
    (tstamp 512a90a0-2181-4680-8676-f7fe961da951)
  )
  (fp_text value "MountingHole_5.3mm_M5_ISO14580_Pad" (at 0 5.25) (layer "F.Fab")
    (effects (font (size 1 1) (thickness 0.15)))
    (tstamp 9c40b3d1-ea8f-4fa0-83b1-23f7cbdc1acb)
  )
  (fp_text user "${REFERENCE}" (at 0.3 0) (layer "F.Fab")
    (effects (font (size 1 1) (thickness 0.15)))
    (tstamp b00c82fb-581f-429b-9b6f-801678083663)
  )
  (fp_circle (center 0 0) (end 4.25 0) (layer "Cmts.User") (width 0.15) (fill none) (tstamp 336351cf-cb19-4816-bb54-98b913ae9ee5))
  (fp_circle (center 0 0) (end 4.5 0) (layer "F.CrtYd") (width 0.05) (fill none) (tstamp 1b0ca039-efd8-434c-a842-814d07bc4e51))
  (pad "1" thru_hole circle (at 0 0) (size 8.5 8.5) (drill 5.3) (layers *.Cu *.Mask) (tstamp 09241d10-b1e0-417b-8f33-b0e62ca83407))
)
