(footprint "MountingHole_4.5mm_Pad_Via" (version 20211014) (generator pcbnew)
  (layer "F.Cu")
  (tedit 56DDC0D9)
  (descr "Mounting Hole 4.5mm")
  (tags "mounting hole 4.5mm")
  (attr exclude_from_pos_files exclude_from_bom)
  (fp_text reference "REF**" (at 0 -5.5) (layer "F.SilkS")
    (effects (font (size 1 1) (thickness 0.15)))
    (tstamp c494bdaf-7e54-4efa-81b0-5dcfc9501039)
  )
  (fp_text value "MountingHole_4.5mm_Pad_Via" (at 0 5.5) (layer "F.Fab")
    (effects (font (size 1 1) (thickness 0.15)))
    (tstamp d6ed0355-5ce8-4ebd-a07f-bb020fecff7e)
  )
  (fp_text user "${REFERENCE}" (at 0.3 0) (layer "F.Fab")
    (effects (font (size 1 1) (thickness 0.15)))
    (tstamp 1aa908f9-7f7f-4cd8-a8a7-b90c6d3b1172)
  )
  (fp_circle (center 0 0) (end 4.5 0) (layer "Cmts.User") (width 0.15) (fill none) (tstamp 7c630faa-1966-4cf7-8756-47f70e5b2550))
  (fp_circle (center 0 0) (end 4.75 0) (layer "F.CrtYd") (width 0.05) (fill none) (tstamp 4ff17769-2d0c-41ce-aedd-1230d8a7a0ba))
  (pad "1" thru_hole circle (at 0 -3.375) (size 0.9 0.9) (drill 0.6) (layers *.Cu *.Mask) (tstamp 1a7cbeaf-e5ce-4274-9613-3dacf080a596))
  (pad "1" thru_hole circle (at -2.386485 2.386485) (size 0.9 0.9) (drill 0.6) (layers *.Cu *.Mask) (tstamp 1ccfef18-4cae-4c90-bec7-056ff513f968))
  (pad "1" thru_hole circle (at 0 3.375) (size 0.9 0.9) (drill 0.6) (layers *.Cu *.Mask) (tstamp 1d1978ab-1b7d-432b-8977-6c7a900795f3))
  (pad "1" thru_hole circle (at 0 0) (size 9 9) (drill 4.5) (layers *.Cu *.Mask) (tstamp 1fa35204-b4b5-48ad-8e07-5e6003494434))
  (pad "1" thru_hole circle (at 3.375 0) (size 0.9 0.9) (drill 0.6) (layers *.Cu *.Mask) (tstamp 3b414604-3cd2-4c95-90ff-427866a3e663))
  (pad "1" thru_hole circle (at -2.386485 -2.386485) (size 0.9 0.9) (drill 0.6) (layers *.Cu *.Mask) (tstamp 41418950-d831-4f86-8d71-50c0655f49ce))
  (pad "1" thru_hole circle (at 2.386485 2.386485) (size 0.9 0.9) (drill 0.6) (layers *.Cu *.Mask) (tstamp 8d194489-c17d-4e74-adad-1a34452b9dd8))
  (pad "1" thru_hole circle (at 2.386485 -2.386485) (size 0.9 0.9) (drill 0.6) (layers *.Cu *.Mask) (tstamp 90c8ee88-f112-43ac-8ef0-0a19b12f7a20))
  (pad "1" thru_hole circle (at -3.375 0) (size 0.9 0.9) (drill 0.6) (layers *.Cu *.Mask) (tstamp 96cca269-9d4f-4fbd-958d-36e6839ad025))
)
