(footprint "Converter_DCDC_Murata_MGJ3" (version 20211014) (generator pcbnew)
  (layer "F.Cu")
  (tedit 5CD59A0B)
  (descr "Murata MGJ3, 5.2kVDC Isolated 3W Gate Drive, 15V/5V/5V Configurable, 22.61x23.11x14.19mm, https://power.murata.com/datasheet?/data/power/ncl/kdc_mgj3.pdf")
  (tags "DCDC SMD")
  (attr smd)
  (fp_text reference "REF**" (at 0 -12.5) (layer "F.SilkS")
    (effects (font (size 1 1) (thickness 0.15)))
    (tstamp 61f8b62f-6075-4c81-979d-ae43011367b1)
  )
  (fp_text value "Converter_DCDC_Murata_MGJ3" (at 0 12.5) (layer "F.Fab")
    (effects (font (size 1 1) (thickness 0.15)))
    (tstamp a27dc984-cf9d-4abc-a297-cab728a55b98)
  )
  (fp_text user "Copper Keepout" (at 0 1.5) (layer "Cmts.User")
    (effects (font (size 1 1) (thickness 0.15)))
    (tstamp 79c95749-b9a8-41dc-872e-c7103928d89e)
  )
  (fp_text user "${REFERENCE}" (at 0 0) (layer "F.Fab")
    (effects (font (size 1 1) (thickness 0.15)))
    (tstamp 00641cbe-8954-4ced-a3b7-ac040084870d)
  )
  (fp_line (start 11.415 11.665) (end -11.415 11.665) (layer "F.SilkS") (width 0.12) (tstamp 304a26f2-f2f9-4e3b-9ac8-a4e9a80bbc22))
  (fp_line (start 11.415 -11.665) (end 11.415 11.665) (layer "F.SilkS") (width 0.12) (tstamp 3ff764f0-c7e3-4ee8-b1b4-802eaa20ec4a))
  (fp_line (start 11.415 -11.665) (end -11.415 -11.665) (layer "F.SilkS") (width 0.12) (tstamp 8651478f-162e-45e7-abd5-00cc8764d441))
  (fp_line (start -11.415 -6.115) (end -11.415 11.665) (layer "F.SilkS") (width 0.12) (tstamp affd87a4-ae78-4b58-9cd3-ac24d75a631f))
  (fp_line (start 11.305 5.27) (end 5.295 5.27) (layer "Dwgs.User") (width 0.12) (tstamp 0166a677-218f-4ca5-97a9-80a97533c300))
  (fp_line (start 2.34 7.62) (end 11.305 -1.34) (layer "Dwgs.User") (width 0.12) (tstamp 031a27ca-82a7-4a4b-ad28-7b803a315952))
  (fp_line (start -11.305 -0.73) (end -9.305 -2.73) (layer "Dwgs.User") (width 0.12) (tstamp 03dcc1c2-01cd-4d3c-93f8-ac1321307d33))
  (fp_line (start -11.305 -2.73) (end 11.305 -2.73) (layer "Dwgs.User") (width 0.12) (tstamp 0812cdc1-901d-4630-942e-83e8413c5ea3))
  (fp_line (start -5.295 5.27) (end -11.305 5.27) (layer "Dwgs.User") (width 0.12) (tstamp 0c001315-633d-4bb6-b24a-a6bcf8367855))
  (fp_line (start -11.305 3.27) (end -5.305 -2.73) (layer "Dwgs.User") (width 0.12) (tstamp 1174e139-6a19-48b9-81d1-bdd8158ee719))
  (fp_line (start -7.305 5.27) (end 0.695 -2.73) (layer "Dwgs.User") (width 0.12) (tstamp 1535af49-34d8-482e-8cf4-c6837bcec3a4))
  (fp_line (start -11.305 5.27) (end -3.305 -2.73) (layer "Dwgs.User") (width 0.12) (tstamp 1eae9b21-25f9-4b83-b7a1-50ff6f925cb2))
  (fp_line (start 5.295 5.27) (end 5.295 7.62) (layer "Dwgs.User") (width 0.12) (tstamp 4b05c6a9-932a-4215-80f5-7d3ee332be15))
  (fp_line (start 5.295 7.62) (end -5.295 7.62) (layer "Dwgs.User") (width 0.12) (tstamp 6770c2fb-db9e-4b8d-a56d-017445eb3996))
  (fp_line (start -5.295 7.62) (end -5.295 5.27) (layer "Dwgs.User") (width 0.12) (tstamp 6ae74ed5-5631-490e-8f56-4da6380f0ebf))
  (fp_line (start 10.695 5.27) (end 11.305 4.66) (layer "Dwgs.User") (width 0.12) (tstamp 6e4e0317-6839-4c22-b9f8-78222f84fd71))
  (fp_line (start -1.65 7.62) (end 8.695 -2.73) (layer "Dwgs.User") (width 0.12) (tstamp 7867fb80-e365-4eca-a16f-ef4eeefc9596))
  (fp_line (start -9.305 5.27) (end -1.305 -2.73) (layer "Dwgs.User") (width 0.12) (tstamp 96e27a04-d36f-446e-a1a6-97e302ae6529))
  (fp_line (start -3.65 7.62) (end 6.695 -2.73) (layer "Dwgs.User") (width 0.12) (tstamp 9c215a24-f40e-4a7b-bb0e-bfc958ce1c72))
  (fp_line (start 6.695 5.27) (end 11.305 0.66) (layer "Dwgs.User") (width 0.12) (tstamp a5d7e523-286c-4a3a-810e-303d56a44baa))
  (fp_line (start 11.305 -2.73) (end 11.305 5.27) (layer "Dwgs.User") (width 0.12) (tstamp b5bccdef-42e3-4843-b84d-d4cb53fcdb20))
  (fp_line (start -5.305 5.27) (end 2.695 -2.73) (layer "Dwgs.User") (width 0.12) (tstamp caea33ee-b4e1-4786-ae3d-b95bc074ef41))
  (fp_line (start -11.305 1.27) (end -7.305 -2.73) (layer "Dwgs.User") (width 0.12) (tstamp ce75fe9a-0384-4142-9254-97e02bc6b579))
  (fp_line (start -5.295 7.255) (end 4.695 -2.73) (layer "Dwgs.User") (width 0.12) (tstamp d1b42601-b4cf-409f-85ea-d48264257259))
  (fp_line (start 8.695 5.27) (end 11.305 2.66) (layer "Dwgs.User") (width 0.12) (tstamp e2591157-9a9c-49f7-bddb-54606390e703))
  (fp_line (start 0.342 7.62) (end 10.695 -2.73) (layer "Dwgs.User") (width 0.12) (tstamp f9994f4d-dc43-4a1b-9ebc-b9cc1a329f5e))
  (fp_line (start -11.305 5.27) (end -11.305 -2.73) (layer "Dwgs.User") (width 0.12) (tstamp ff9960bf-23c2-48a9-8fdf-98b21a7b3f06))
  (fp_line (start -11.56 11.81) (end 11.56 11.81) (layer "F.CrtYd") (width 0.05) (tstamp 7a37ca0c-2239-45f7-a59f-6a0560638c5e))
  (fp_line (start 11.56 11.81) (end 11.56 -11.81) (layer "F.CrtYd") (width 0.05) (tstamp 978642c7-85c6-4197-8fea-644a2e2d7868))
  (fp_line (start -11.56 -11.81) (end -11.56 11.81) (layer "F.CrtYd") (width 0.05) (tstamp c25a9542-3682-4c15-b078-7967aebdc16e))
  (fp_line (start 11.56 -11.81) (end -11.56 -11.81) (layer "F.CrtYd") (width 0.05) (tstamp e7002531-5fbd-4a51-a344-4d8818c7188c))
  (fp_line (start 11.305 -11.555) (end 11.305 11.555) (layer "F.Fab") (width 0.1) (tstamp 2a03694e-4555-432c-aad4-80c972ca8890))
  (fp_line (start -11.305 -10.555) (end -10.305 -11.555) (layer "F.Fab") (width 0.1) (tstamp 4dc20ea7-df48-45d3-b77d-1a5f400ed7e6))
  (fp_line (start 11.305 -11.555) (end -10.305 -11.555) (layer "F.Fab") (width 0.1) (tstamp 5d736dc8-4927-4136-aa3e-ead015fd7f06))
  (fp_line (start -11.305 -10.555) (end -11.305 11.555) (layer "F.Fab") (width 0.1) (tstamp 8b18a2c7-66aa-4924-8908-9fe6706c170e))
  (fp_line (start -11.305 11.555) (end 11.305 11.555) (layer "F.Fab") (width 0.1) (tstamp 9f8c0612-89ed-4ffa-ad15-63f56b940b82))
  (pad "1" smd rect (at -9.525 -8.89) (size 3.38 2.16) (layers "F.Cu" "F.Paste" "F.Mask") (tstamp b19f1bd5-0567-474d-8bad-50a354752488))
  (pad "3" smd rect (at -9.525 -3.81) (size 3.38 2.16) (layers "F.Cu" "F.Paste" "F.Mask") (tstamp 87ba5b31-07d5-48fd-8101-e5241a91ed83))
  (pad "7" smd rect (at -9.525 6.35) (size 3.38 2.16) (layers "F.Cu" "F.Paste" "F.Mask") (tstamp fbd382bc-d590-413e-a69e-d737625e0764))
  (pad "8" smd rect (at -9.525 8.89) (size 3.38 2.16) (layers "F.Cu" "F.Paste" "F.Mask") (tstamp 486122e7-2b76-4321-8f7a-d84202751cb7))
  (pad "9" smd rect (at 9.525 8.89) (size 3.38 2.16) (layers "F.Cu" "F.Paste" "F.Mask") (tstamp 52de524a-1e6c-485b-ac80-430999eafda9))
  (pad "10" smd rect (at 9.525 6.35) (size 3.38 2.16) (layers "F.Cu" "F.Paste" "F.Mask") (tstamp 95e028d8-2d88-49cd-a31f-7f83aa658e24))
  (pad "16" smd rect (at 9.525 -8.89) (size 3.38 2.16) (layers "F.Cu" "F.Paste" "F.Mask") (tstamp 459e2dce-57c3-49e6-93ba-a6105f005e39))
  (model "${KICAD6_3DMODEL_DIR}/Converter_DCDC.3dshapes/Converter_DCDC_Murata_MGJ3.wrl"
    (offset (xyz 0 0 0))
    (scale (xyz 1 1 1))
    (rotate (xyz 0 0 0))
  )
)
