(footprint "microSD_HC_Hirose_DM3AT-SF-PEJM5" (version 20211014) (generator pcbnew)
  (layer "F.Cu")
  (tedit 5A1DBFB5)
  (descr "Micro SD, SMD, right-angle, push-pull (https://www.hirose.com/product/en/download_file/key_name/DM3AT-SF-PEJM5/category/Drawing%20(2D)/doc_file_id/44099/?file_category_id=6&item_id=06090031000&is_series=)")
  (tags "Micro SD")
  (attr smd)
  (fp_text reference "REF**" (at -0.075 -9.525) (layer "F.SilkS")
    (effects (font (size 1 1) (thickness 0.15)))
    (tstamp 56ed3658-0efc-49a3-9c7b-35b775a1bda6)
  )
  (fp_text value "microSD_HC_Hirose_DM3AT-SF-PEJM5" (at -0.075 9.575) (layer "F.Fab")
    (effects (font (size 1 1) (thickness 0.15)))
    (tstamp be25eb87-0c39-45fa-a6fa-b2efbf8e4f5d)
  )
  (fp_text user "KEEPOUT" (at -6.85 -3.25 90) (layer "Cmts.User")
    (effects (font (size 0.6 0.6) (thickness 0.09)))
    (tstamp 2254b547-6b37-4d3d-b2a0-55e1449df92d)
  )
  (fp_text user "KEEPOUT" (at -5.775 2.375 90) (layer "Cmts.User")
    (effects (font (size 0.6 0.6) (thickness 0.09)))
    (tstamp 4080d725-318e-4a0c-8531-0dd0d144e0b7)
  )
  (fp_text user "KEEPOUT" (at -1.075 -1.925) (layer "Cmts.User")
    (effects (font (size 1 1) (thickness 0.1)))
    (tstamp 5676470e-5566-4214-95c2-875eb23c3f4f)
  )
  (fp_text user "KEEPOUT" (at 4.2 7.65) (layer "Cmts.User")
    (effects (font (size 0.4 0.4) (thickness 0.06)))
    (tstamp eccb69a8-b9fb-4813-af9c-1e9ac8fcbaf1)
  )
  (fp_text user "${REFERENCE}" (at -0.075 0.375) (layer "F.Fab")
    (effects (font (size 1 1) (thickness 0.1)))
    (tstamp ad8ea1e9-2e08-4275-a52e-0bdf5db749dd)
  )
  (fp_line (start 6.995 -7.885) (end 6.995 6.125) (layer "F.SilkS") (width 0.12) (tstamp 1bdd865f-c9bc-4d5d-b083-b7435973b8a7))
  (fp_line (start 3.005 8.385) (end 2.495 8.035) (layer "F.SilkS") (width 0.12) (tstamp 1d42e6c5-723a-4c7b-aa97-29ce2097a5d3))
  (fp_line (start -3.875 8.035) (end -3.875 8.185) (layer "F.SilkS") (width 0.12) (tstamp 1f5d47ff-1e1a-477f-bca3-6a9d7a85b528))
  (fp_line (start -6.525 -7.885) (end -6.975 -7.885) (layer "F.SilkS") (width 0.12) (tstamp 2cbe1ede-b4a9-415d-a707-7a8921396521))
  (fp_line (start 5.515 8.185) (end 5.775 8.185) (layer "F.SilkS") (width 0.12) (tstamp 39c4e8cd-d3bf-4eeb-b8e5-13eaa2c9e6e7))
  (fp_line (start -6.975 -7.885) (end -6.975 -4.275) (layer "F.SilkS") (width 0.12) (tstamp 54012b7f-ea40-4cc5-9fce-636ec10ccd3f))
  (fp_line (start -5.945 8.385) (end -4.085 8.385) (layer "F.SilkS") (width 0.12) (tstamp 8e0b3543-3c09-467d-9370-b0ac81768125))
  (fp_line (start 5.075 -7.885) (end 6.995 -7.885) (layer "F.SilkS") (width 0.12) (tstamp d4a9a235-a514-4d3e-a123-4b177a17a4f8))
  (fp_line (start -6.975 3.425) (end -6.975 5.225) (layer "F.SilkS") (width 0.12) (tstamp dd0d20ea-8662-4a0b-96ca-33828c550e90))
  (fp_line (start 5.315 8.385) (end 5.515 8.185) (layer "F.SilkS") (width 0.12) (tstamp eb7f1c6c-fbe9-4c9f-b697-a53e1d7b1c6a))
  (fp_line (start -4.085 8.385) (end -3.875 8.185) (layer "F.SilkS") (width 0.12) (tstamp f641ce55-b681-4478-aaa7-0ba61aadd68a))
  (fp_line (start -6.975 -2.575) (end -6.975 2.125) (layer "F.SilkS") (width 0.12) (tstamp f7133dec-d3a3-4a3d-bc03-630945d7f9d5))
  (fp_line (start -3.875 8.035) (end 2.495 8.035) (layer "F.SilkS") (width 0.12) (tstamp fbca4ecd-187c-4f10-b715-40bb9124f2d1))
  (fp_line (start -5.945 8.385) (end -6.145 8.185) (layer "F.SilkS") (width 0.12) (tstamp ff16b66c-42a4-4e95-a6e7-811e7e573b3a))
  (fp_line (start 5.315 8.385) (end 3.005 8.385) (layer "F.SilkS") (width 0.12) (tstamp ffb3310f-119c-42c6-ad62-66ee3c82f1a4))
  (fp_line (start 4.475 6.975) (end 3.675 8.325) (layer "Dwgs.User") (width 0.1) (tstamp 00b905bd-58d8-4374-a8eb-296c255b0b00))
  (fp_line (start 5.475 6.975) (end 4.675 8.325) (layer "Dwgs.User") (width 0.1) (tstamp 00f7d224-5b8c-4f85-9684-1fdbaa5b02e4))
  (fp_line (start 2.825 -2.725) (end 0.6 -1.125) (layer "Dwgs.User") (width 0.1) (tstamp 06df76a3-1268-4496-8e24-85f91f7051ed))
  (fp_line (start -5.425 -1.325) (end -3.475 -2.725) (layer "Dwgs.User") (width 0.1) (tstamp 09ccfda4-4cfb-43e7-bb38-393feaa1891b))
  (fp_line (start -6.125 0.675) (end -5.425 0.175) (layer "Dwgs.User") (width 0.1) (tstamp 0a83f2db-6aa8-4bec-a83b-5b87e61d3cb8))
  (fp_line (start -6.125 -0.825) (end -5.425 -1.325) (layer "Dwgs.User") (width 0.1) (tstamp 0d30291f-68d8-431c-9892-b2996772fea1))
  (fp_line (start -6.475 -0.275) (end -7.225 0.225) (layer "Dwgs.User") (width 0.1) (tstamp 1306ed06-13e5-4769-a936-e89e83fb20f3))
  (fp_line (start -6.475 -2.775) (end -7.225 -2.275) (layer "Dwgs.User") (width 0.1) (tstamp 132bc270-527c-40f2-a69c-5f85831cfca3))
  (fp_line (start 3.275 -1.125) (end -5.425 -1.125) (layer "Dwgs.User") (width 0.1) (tstamp 15054d60-2fd4-4dda-8ff4-77a0fe960711))
  (fp_line (start -6.125 4.175) (end -5.425 3.675) (layer "Dwgs.User") (width 0.1) (tstamp 165f1fed-491f-4ba1-ad16-450a7ea32012))
  (fp_line (start -0.675 -2.725) (end -2.9 -1.125) (layer "Dwgs.User") (width 0.1) (tstamp 1771ff80-397f-4c88-a4cc-757c8c87091d))
  (fp_line (start -6.125 0.175) (end -5.425 -0.325) (layer "Dwgs.User") (width 0.1) (tstamp 18fc5aef-a2a9-4f03-878d-5a9ef2b7dbc4))
  (fp_line (start -6.475 0.225) (end -7.225 0.725) (layer "Dwgs.User") (width 0.1) (tstamp 1a701082-aa4a-4b65-ac05-c7738aff65cc))
  (fp_line (start -6.475 -1.275) (end -7.225 -0.775) (layer "Dwgs.User") (width 0.1) (tstamp 1b6202f3-903f-4055-961d-4dae7fbae0f6))
  (fp_line (start -2.775 -2.725) (end -5 -1.125) (layer "Dwgs.User") (width 0.1) (tstamp 1c200739-d5d3-4efb-99c8-b8dbeeffac60))
  (fp_line (start -5.425 -2.725) (end 3.275 -2.725) (layer "Dwgs.User") (width 0.1) (tstamp 1e5d53e3-ddda-4243-8351-6886dff5593b))
  (fp_line (start -2.075 -2.725) (end -4.3 -1.125) (layer "Dwgs.User") (width 0.1) (tstamp 1ec79777-9c0f-4a67-bc8c-215ccb58d124))
  (fp_line (start -6.475 -6.775) (end -7.225 -6.275) (layer "Dwgs.User") (width 0.1) (tstamp 2e7a8f79-25bd-4a77-b566-8f75115f3d1f))
  (fp_line (start 4.975 6.975) (end 4.175 8.325) (layer "Dwgs.User") (width 0.1) (tstamp 2f16bd40-6b95-44ce-bdaa-19e15f1c0f51))
  (fp_line (start -6.125 2.175) (end -5.425 1.675) (layer "Dwgs.User") (width 0.1) (tstamp 30fa81d0-3394-45ea-a663-6c4c3d548acd))
  (fp_line (start -6.125 5.675) (end -5.425 5.175) (layer "Dwgs.User") (width 0.1) (tstamp 3b4915d9-7823-45ce-ae2e-b2c654a053ae))
  (fp_line (start -4.175 -2.725) (end -5.425 -1.825) (layer "Dwgs.User") (width 0.1) (tstamp 3b815062-392e-4ebb-898b-3a7cd105addf))
  (fp_line (start 2.925 8.325) (end 2.925 6.975) (layer "Dwgs.User") (width 0.1) (tstamp 4258701b-90d0-4e03-92dc-52b7f996bd89))
  (fp_line (start -6.475 -1.775) (end -7.225 -1.275) (layer "Dwgs.User") (width 0.1) (tstamp 434540bd-4d61-4d73-9a49-48eecece5876))
  (fp_line (start 1.425 -2.725) (end -0.8 -1.125) (layer "Dwgs.User") (width 0.1) (tstamp 48adc0a4-8dc8-456c-b811-9f32c1adc350))
  (fp_line (start -6.475 -0.775) (end -7.225 -0.275) (layer "Dwgs.User") (width 0.1) (tstamp 4e17d950-43c5-4cce-91e5-200e89066903))
  (fp_line (start -6.125 4.675) (end -5.425 4.175) (layer "Dwgs.User") (width 0.1) (tstamp 50eeee7f-6e77-4281-9c17-5cda5e55087d))
  (fp_line (start 3.275 -2.025) (end 2 -1.125) (layer "Dwgs.User") (width 0.1) (tstamp 51803515-fa71-4560-9043-befb9e109f27))
  (fp_line (start 3.975 6.975) (end 3.175 8.325) (layer "Dwgs.User") (width 0.1) (tstamp 52384998-b91e-48c1-ac30-80381f727525))
  (fp_line (start -6.475 0.775) (end -7.225 0.775) (layer "Dwgs.User") (width 0.1) (tstamp 581e56b6-6f61-4665-a483-c5b7171f03fd))
  (fp_line (start -6.475 -5.275) (end -7.225 -4.775) (layer "Dwgs.User") (width 0.1) (tstamp 5ea79580-e0d6-4925-848b-5899f64b9115))
  (fp_line (start 5.475 6.975) (end 5.475 8.325) (layer "Dwgs.User") (width 0.1) (tstamp 5ee13a3f-4089-451d-90a6-fe48aa5ab02e))
  (fp_line (start -6.475 -6.275) (end -7.225 -5.775) (layer "Dwgs.User") (width 0.1) (tstamp 60755d33-7bb1-4c2b-ba7e-f32427be8f7d))
  (fp_line (start -6.125 3.175) (end -5.425 2.675) (layer "Dwgs.User") (width 0.1) (tstamp 62e33d30-a617-45ca-80b9-799c5e28178c))
  (fp_line (start 2.125 -2.725) (end -0.1 -1.125) (layer "Dwgs.User") (width 0.1) (tstamp 658f4470-f2b5-4526-82a0-45e24dc70cf8))
  (fp_line (start 2.925 6.975) (end 5.475 6.975) (layer "Dwgs.User") (width 0.1) (tstamp 6e174e6e-59f1-49bf-af2e-ce7930579d9b))
  (fp_line (start -5.425 -2.725) (end -5.425 6.175) (layer "Dwgs.User") (width 0.1) (tstamp 72c2843c-c483-4d5e-9d91-e82ff6010eb8))
  (fp_line (start -6.125 -0.325) (end -5.425 -0.825) (layer "Dwgs.User") (width 0.1) (tstamp 7375351a-c402-4fa0-8482-de0d85ccbe66))
  (fp_line (start -6.125 -1.325) (end -5.975 -1.425) (layer "Dwgs.User") (width 0.1) (tstamp 7823aa2d-64b9-40dc-9b43-b7064355f05f))
  (fp_line (start 5.475 8.325) (end 2.925 8.325) (layer "Dwgs.User") (width 0.1) (tstamp 7a0dec59-c8a3-488e-88cc-e8a96b822583))
  (fp_line (start -6.125 -1.425) (end -5.425 -1.425) (layer "Dwgs.User") (width 0.1) (tstamp 8a4c4b67-6f70-4211-9e71-2faed4693858))
  (fp_line (start -6.475 -7.275) (end -6.475 0.775) (layer "Dwgs.User") (width 0.1) (tstamp a006f6a4-cd62-41f2-94b6-693d5e0068ed))
  (fp_line (start -6.125 3.675) (end -5.425 3.175) (layer "Dwgs.User") (width 0.1) (tstamp a2421251-3ecb-4044-a040-36e8d350bba3))
  (fp_line (start 3.275 -2.525) (end 1.3 -1.125) (layer "Dwgs.User") (width 0.1) (tstamp a3a1191b-51b5-4332-9d96-5f35f283a11c))
  (fp_line (start -6.475 -7.275) (end -7.225 -6.775) (layer "Dwgs.User") (width 0.1) (tstamp a57011aa-9040-4376-903a-c560669aaf8c))
  (fp_line (start -6.125 1.675) (end -5.425 1.175) (layer "Dwgs.User") (width 0.1) (tstamp acf9c0d7-30a0-4acb-be7c-9e38e01c09c5))
  (fp_line (start -6.475 -2.275) (end -7.225 -1.775) (layer "Dwgs.User") (width 0.1) (tstamp ad4321e9-a92d-4cd2-af15-a0e66d2b0ee5))
  (fp_line (start -6.475 -5.775) (end -7.225 -5.275) (layer "Dwgs.User") (width 0.1) (tstamp b36474b7-e36e-4beb-b4e5-d4b402a4227e))
  (fp_line (start 0.025 -2.725) (end -2.2 -1.125) (layer "Dwgs.User") (width 0.1) (tstamp b4313846-9a1d-403b-963a-df12f2305ffa))
  (fp_line (start 3.275 -1.525) (end 2.7 -1.125) (layer "Dwgs.User") (width 0.1) (tstamp b7039f9e-9d18-43a1-893c-0bf32983bef9))
  (fp_line (start -4.875 -2.725) (end -5.425 -2.325) (layer "Dwgs.User") (width 0.1) (tstamp b78b4f3e-2ff9-47f3-b8c4-9eb9587583b2))
  (fp_line (start 3.475 6.975) (end 2.925 7.875) (layer "Dwgs.User") (width 0.1) (tstamp b7becca2-437e-42db-9748-df4963b822cf))
  (fp_line (start -6.475 -3.775) (end -7.225 -3.275) (layer "Dwgs.User") (width 0.1) (tstamp bb757417-a578-4087-ab4c-a053afe92a4d))
  (fp_line (start -7.225 0.775) (end -7.225 -7.275) (layer "Dwgs.User") (width 0.1) (tstamp bc19b2d4-523b-466c-8a46-06c6ba2776bb))
  (fp_line (start -6.125 6.175) (end -6.125 -1.425) (layer "Dwgs.User") (width 0.1) (tstamp ca3c923f-5e56-465e-9534-ac1ecf556bc5))
  (fp_line (start -6.475 -4.775) (end -7.225 -4.275) (layer "Dwgs.User") (width 0.1) (tstamp cfe763d5-27d6-4154-9419-d0e90edaed9a))
  (fp_line (start -1.375 -2.725) (end -3.6 -1.125) (layer "Dwgs.User") (width 0.1) (tstamp d04e11e1-995c-4d7b-a78e-34bc8da55901))
  (fp_line (start -5.425 6.175) (end -6.125 6.175) (layer "Dwgs.User") (width 0.1) (tstamp d7f2b678-bd48-4d3c-bbb8-93234398589e))
  (fp_line (start 3.275 -2.725) (end 3.275 -1.125) (layer "Dwgs.User") (width 0.1) (tstamp dac8dd5f-e456-4d7a-be98-e9e3963b7689))
  (fp_line (start -6.125 6.175) (end -5.425 5.675) (layer "Dwgs.User") (width 0.1) (tstamp df04e6d4-0e98-4e08-9d4f-8bc85f260a5d))
  (fp_line (start 0.725 -2.725) (end -1.5 -1.125) (layer "Dwgs.User") (width 0.1) (tstamp e2c00bc9-0f49-4509-8da9-68d1a7a70f49))
  (fp_line (start -6.475 -4.275) (end -7.225 -3.775) (layer "Dwgs.User") (width 0.1) (tstamp e4aa2ad1-949a-44b3-976d-2b80fcd3d81b))
  (fp_line (start -6.475 -3.275) (end -7.225 -2.775) (layer "Dwgs.User") (width 0.1) (tstamp e9792371-a11b-49a7-946f-427720324fa5))
  (fp_line (start -6.125 5.175) (end -5.425 4.675) (layer "Dwgs.User") (width 0.1) (tstamp f2dc1151-8d99-467a-a209-2c9cff24ae93))
  (fp_line (start -6.125 1.175) (end -5.425 0.675) (layer "Dwgs.User") (width 0.1) (tstamp f5eabe12-9a30-453d-93d8-40a136c0e1eb))
  (fp_line (start -7.225 -7.275) (end -6.475 -7.275) (layer "Dwgs.User") (width 0.1) (tstamp f6fd496e-d548-49e2-9a54-b93d4a1305b9))
  (fp_line (start -6.125 2.675) (end -5.425 2.175) (layer "Dwgs.User") (width 0.1) (tstamp ff0e97b5-dd21-4eb6-8b9c-0abb12a7d4ae))
  (fp_line (start -7.82 8.88) (end -7.82 -8.82) (layer "F.CrtYd") (width 0.05) (tstamp 48566d77-e808-4c70-8269-baaca31ce213))
  (fp_line (start 7.88 -8.82) (end 7.88 8.88) (layer "F.CrtYd") (width 0.05) (tstamp 6df7c32d-dadf-4f03-a4d7-5c23a23620f1))
  (fp_line (start -7.82 -8.82) (end 7.88 -8.82) (layer "F.CrtYd") (width 0.05) (tstamp ac8f8afb-c021-4d3d-a547-71c84f5a6057))
  (fp_line (start 7.88 8.88) (end -7.82 8.88) (layer "F.CrtYd") (width 0.05) (tstamp d81709c8-f679-4998-b2c6-25e807266c84))
  (fp_line (start -3.915 8.125) (end -4.115 8.325) (layer "F.Fab") (width 0.1) (tstamp 004c8e41-feee-44e7-94c5-bd57f6b561a8))
  (fp_line (start 2.51 7.975) (end -3.915 7.975) (layer "F.Fab") (width 0.1) (tstamp 34288045-1106-4cea-937e-90f46536cd6e))
  (fp_line (start 6.925 -7.825) (end -6.925 -7.825) (layer "F.Fab") (width 0.1) (tstamp 34949349-16ae-4948-8b3c-9612d3ff0983))
  (fp_line (start 6.925 8.125) (end 6.925 -7.825) (layer "F.Fab") (width 0.1) (tstamp 3d43fc56-ed69-44fe-b1df-37a20747618e))
  (fp_line (start 5.485 8.125) (end 6.925 8.125) (layer "F.Fab") (width 0.1) (tstamp 4921290f-eee6-4a00-83b2-d2195d9f3012))
  (fp_line (start -3.915 8.125) (end -3.915 7.975) (layer "F.Fab") (width 0.1) (tstamp 6160a457-3141-4138-bea9-363d6acc371b))
  (fp_line (start -4.115 8.325) (end -5.915 8.325) (layer "F.Fab") (width 0.1) (tstamp addf879b-100b-4cbf-890c-bc4c0b3dfc89))
  (fp_line (start 5.285 8.325) (end 3.035 8.325) (layer "F.Fab") (width 0.1) (tstamp b044f976-f8ae-4fa8-8c46-42c63c8f00c6))
  (fp_line (start -5.425 9.725) (end 4.575 9.725) (layer "F.Fab") (width 0.1) (tstamp b2037277-0bd2-4b41-ae2d-b03580202e79))
  (fp_line (start -6.115 8.125) (end -6.925 8.125) (layer "F.Fab") (width 0.1) (tstamp b3441b6e-2952-49b7-954c-05863f1a1888))
  (fp_line (start 3.035 8.325) (end 2.51 7.975) (layer "F.Fab") (width 0.1) (tstamp b4e5f4d9-21ea-4685-be1a-bf9e75698fc3))
  (fp_line (start -5.925 8.325) (end -5.925 13.225) (layer "F.Fab") (width 0.1) (tstamp b5ed1726-52b4-4133-b104-da36a7315dc4))
  (fp_line (start -5.915 8.325) (end -6.115 8.125) (layer "F.Fab") (width 0.1) (tstamp b8626bde-69b8-40d6-a4a5-b4696cad6c8c))
  (fp_line (start -6.925 8.125) (end -6.925 -7.825) (layer "F.Fab") (width 0.1) (tstamp e15404c9-9b69-4ce8-b3f1-e7313e15274f))
  (fp_line (start 5.075 13.225) (end 5.075 8.325) (layer "F.Fab") (width 0.1) (tstamp e444ca27-d9bb-462e-900f-789514a509a8))
  (fp_line (start -5.425 13.725) (end 4.575 13.725) (layer "F.Fab") (width 0.1) (tstamp eb733a0b-63e3-4b33-9897-9c3b7c963464))
  (fp_line (start 5.285 8.325) (end 5.485 8.125) (layer "F.Fab") (width 0.1) (tstamp ee57b1ec-6799-452b-85f6-57d3d3c255e5))
  (fp_arc (start -5.425 13.725) (mid -5.778553 13.578553) (end -5.925 13.225) (layer "F.Fab") (width 0.1) (tstamp 1b6e54ec-5e7b-431c-9093-335fdafc7291))
  (fp_arc (start 5.075 9.225) (mid 4.928553 9.578553) (end 4.575 9.725) (layer "F.Fab") (width 0.1) (tstamp 71fb6ed7-ea1c-44dc-8d39-0df9753d5fdf))
  (fp_arc (start 5.075 13.225) (mid 4.928553 13.578553) (end 4.575 13.725) (layer "F.Fab") (width 0.1) (tstamp e4bd173c-dcf7-4035-824c-4ce51907b08f))
  (fp_arc (start -5.425 9.725) (mid -5.778553 9.578553) (end -5.925 9.225) (layer "F.Fab") (width 0.1) (tstamp ef7c2605-b284-4b57-b9c9-4d428f824616))
  (pad "1" smd rect (at 2.775 -7.725) (size 0.7 1.2) (layers "F.Cu" "F.Paste" "F.Mask") (tstamp d42b6f7a-9e9d-4d6a-b4b8-a7d4dfc14a8d))
  (pad "2" smd rect (at 1.675 -7.725) (size 0.7 1.2) (layers "F.Cu" "F.Paste" "F.Mask") (tstamp 91b42293-2d1d-4cdc-83ac-4cbf659023aa))
  (pad "3" smd rect (at 0.575 -7.725) (size 0.7 1.2) (layers "F.Cu" "F.Paste" "F.Mask") (tstamp e6e157f3-8a56-45d6-8ef2-de08d8062922))
  (pad "4" smd rect (at -0.525 -7.725) (size 0.7 1.2) (layers "F.Cu" "F.Paste" "F.Mask") (tstamp c8830a3e-6f30-42da-bac2-84cc6a552b99))
  (pad "5" smd rect (at -1.625 -7.725) (size 0.7 1.2) (layers "F.Cu" "F.Paste" "F.Mask") (tstamp 3ad4f8e3-3f0d-410c-8fd0-f9a9529fc2c7))
  (pad "6" smd rect (at -2.725 -7.725) (size 0.7 1.2) (layers "F.Cu" "F.Paste" "F.Mask") (tstamp 1c48c3c1-b68e-44f8-8d19-a8d55ac317a1))
  (pad "7" smd rect (at -3.825 -7.725) (size 0.7 1.2) (layers "F.Cu" "F.Paste" "F.Mask") (tstamp c52b3e29-dc41-4a7d-b305-404f6666a640))
  (pad "8" smd rect (at -4.925 -7.725) (size 0.7 1.2) (layers "F.Cu" "F.Paste" "F.Mask") (tstamp aca06608-4af8-4724-a008-f7592de498f6))
  (pad "9" smd rect (at -5.875 -7.725) (size 0.7 1.2) (layers "F.Cu" "F.Paste" "F.Mask") (tstamp 096cb583-8ee1-4a05-92c4-21bb7f8d8e92))
  (pad "10" smd rect (at -6.825 2.775) (size 1 0.8) (layers "F.Cu" "F.Paste" "F.Mask") (tstamp 0d71c0d7-8dee-4f35-89f4-e1c13bc0ab68))
  (pad "11" smd rect (at -6.825 6.925) (size 1 2.8) (layers "F.Cu" "F.Paste" "F.Mask") (tstamp 0b25824b-d787-434d-8609-0d9e36029098))
  (pad "11" smd rect (at 6.675 7.375) (size 1.3 1.9) (layers "F.Cu" "F.Paste" "F.Mask") (tstamp 5b63e2f0-5c93-4e49-aed2-9e4171b31824))
  (pad "11" smd rect (at 4.325 -7.725) (size 1 1.2) (layers "F.Cu" "F.Paste" "F.Mask") (tstamp 73790d06-0792-4a85-90a6-bea9bbf93bb9))
  (pad "11" smd rect (at -6.825 -3.425) (size 1 1.2) (layers "F.Cu" "F.Paste" "F.Mask") (tstamp 9ce495f9-4e92-4dbc-8edf-00e89c0997fe))
  (model "${KICAD6_3DMODEL_DIR}/Connector_Card.3dshapes/microSD_HC_Hirose_DM3AT-SF-PEJM5.wrl"
    (offset (xyz 0 0 0))
    (scale (xyz 1 1 1))
    (rotate (xyz 0 0 0))
  )
)
